<?xml version="1.0" encoding="UTF-8" standalone="no"?>
<!-- Generator: Adobe Illustrator 19.0.0, SVG Export Plug-In . SVG Version: 6.00 Build 0)  -->

<svg
   xmlns:dc="http://purl.org/dc/elements/1.1/"
   xmlns:cc="http://creativecommons.org/ns#"
   xmlns:rdf="http://www.w3.org/1999/02/22-rdf-syntax-ns#"
   xmlns:svg="http://www.w3.org/2000/svg"
   xmlns="http://www.w3.org/2000/svg"
   xmlns:sodipodi="http://sodipodi.sourceforge.net/DTD/sodipodi-0.dtd"
   xmlns:inkscape="http://www.inkscape.org/namespaces/inkscape"
   version="1.1"
   id="Capa_1"
   x="0px"
   y="0px"
   viewBox="0 0 512.023 512.023"
   style="enable-background:new 0 0 512.023 512.023;"
   xml:space="preserve"
   sodipodi:docname="update.svg"
   inkscape:version="0.92.1 r15371"><metadata
     id="metadata43"><rdf:RDF><cc:Work
         rdf:about=""><dc:format>image/svg+xml</dc:format><dc:type
           rdf:resource="http://purl.org/dc/dcmitype/StillImage" /></cc:Work></rdf:RDF></metadata><defs
     id="defs41"><linearGradient
       id="linearGradient8311-06"><stop
         offset="0"
         style="stop-color:#a9a3d4;stop-opacity:1"
         id="stop8313-6" /><stop
         id="stop4462"
         style="stop-color:#87baff;stop-opacity:1"
         offset="0.47001833" /><stop
         offset="1"
         style="stop-color:#89ec85;stop-opacity:1"
         id="stop8315-2" /></linearGradient><linearGradient
       id="linearGradient4915"><stop
         id="stop4917"
         offset="0"
         style="stop-color:#8645a3;stop-opacity:1" /><stop
         style="stop-color:#d164ff;stop-opacity:1"
         offset="1"
         id="stop4919" /></linearGradient><linearGradient
       id="linearGradient3687-2"><stop
         style="stop-color:#1a1a1a;stop-opacity:1"
         offset="0"
         id="stop3689-6" /><stop
         id="stop3691-8"
         offset="0.11054216"
         style="stop-color:#2c2c2e;stop-opacity:1" /><stop
         id="stop3693-8"
         offset="0.29001436"
         style="stop-color:#2b2b2d;stop-opacity:1" /><stop
         id="stop3695-4"
         offset="0.5118711"
         style="stop-color:#2a2b2d;stop-opacity:1" /><stop
         id="stop3699-86"
         offset="0.75173318"
         style="stop-color:#2b2b2d;stop-opacity:1" /><stop
         style="stop-color:#323232;stop-opacity:1"
         offset="0.89659214"
         id="stop3701-8" /><stop
         style="stop-color:#171717;stop-opacity:1"
         offset="1"
         id="stop3703-9" /></linearGradient><linearGradient
       id="linearGradient4642"><stop
         offset="0"
         style="stop-color:#0bac83;stop-opacity:1"
         id="stop4644" /><stop
         offset="1"
         style="stop-color:#13ffaf;stop-opacity:1"
         id="stop4646" /></linearGradient><linearGradient
       id="linearGradient4179-7"><stop
         offset="0"
         style="stop-color:#e8d800;stop-opacity:1"
         id="stop4181-2" /><stop
         offset="1"
         style="stop-color:#feff68;stop-opacity:1"
         id="stop4183-1" /></linearGradient><linearGradient
       id="linearGradient4422"><stop
         id="stop4424"
         offset="0"
         style="stop-color:#ff9300;stop-opacity:1" /><stop
         id="stop4426"
         offset="1"
         style="stop-color:#ffd702;stop-opacity:1" /></linearGradient><linearGradient
       id="linearGradient8467-7"><stop
         id="stop8469-4"
         style="stop-color:#3ec896;stop-opacity:1"
         offset="0" /><stop
         id="stop8471-7"
         style="stop-color:#66d9af;stop-opacity:1"
         offset="1" /></linearGradient><linearGradient
       id="linearGradient5845"><stop
         id="stop5847"
         offset="0"
         style="stop-color:#974eb7;stop-opacity:1" /><stop
         style="stop-color:#d164ff;stop-opacity:1"
         offset="1"
         id="stop5849" /></linearGradient><linearGradient
       id="linearGradient4298"><stop
         style="stop-color:#ea3c53;stop-opacity:1"
         offset="0"
         id="stop4300" /><stop
         style="stop-color:#fc593d;stop-opacity:1"
         offset="1"
         id="stop4302" /></linearGradient></defs><sodipodi:namedview
     pagecolor="#ffffff"
     bordercolor="#666666"
     borderopacity="1"
     objecttolerance="10"
     gridtolerance="10"
     guidetolerance="10"
     inkscape:pageopacity="0"
     inkscape:pageshadow="2"
     inkscape:window-width="1024"
     inkscape:window-height="702"
     id="namedview39"
     showgrid="false"
     inkscape:zoom="0.22627417"
     inkscape:cx="200.52906"
     inkscape:cy="86.04832"
     inkscape:window-x="0"
     inkscape:window-y="0"
     inkscape:window-maximized="1"
     inkscape:current-layer="Capa_1" /><path
     style="fill:#f55482;fill-opacity:1"
     d="M472.417,64.449l-213.333-64c-1.997-0.598-4.126-0.598-6.123,0l-213.333,64  c-4.518,1.349-7.615,5.504-7.616,10.219v234.667c0,94.315,143.829,178.219,220.843,202.197c2.083,0.655,4.317,0.655,6.4,0  c76.928-23.979,220.757-107.883,220.757-202.197V74.667C480.013,69.958,476.926,65.805,472.417,64.449z"
     id="path2" /><path
     style="fill:#FAFAFA;"
     d="M256.011,467.009c-5.891,0-10.667-4.776-10.667-10.667V245.334c0-5.891,4.776-10.667,10.667-10.667  h170.667c5.891,0,10.667,4.776,10.667,10.667v64c0,54.784-93.653,126.72-177.728,157.035  C258.46,466.785,257.241,467.002,256.011,467.009z"
     id="path4" /><path
     style="fill:#90CAF9;"
     d="M256.011,256.001H85.345c-5.891,0-10.667-4.776-10.667-10.667V106.411  c-0.002-4.709,3.085-8.862,7.595-10.219l170.667-51.2c5.641-1.697,11.59,1.501,13.287,7.143c0.3,0.998,0.452,2.034,0.452,3.076  v190.123C266.678,251.225,261.902,256.001,256.011,256.001z"
     id="path6" /><g
     id="g8" /><g
     id="g10" /><g
     id="g12" /><g
     id="g14" /><g
     id="g16" /><g
     id="g18" /><g
     id="g20" /><g
     id="g22" /><g
     id="g24" /><g
     id="g26" /><g
     id="g28" /><g
     id="g30" /><g
     id="g32" /><g
     id="g34" /><g
     id="g36" /></svg>