<?xml version="1.0" encoding="UTF-8" standalone="no"?>
<!-- Generator: Adobe Illustrator 19.0.0, SVG Export Plug-In . SVG Version: 6.00 Build 0)  -->

<svg
   xmlns:dc="http://purl.org/dc/elements/1.1/"
   xmlns:cc="http://creativecommons.org/ns#"
   xmlns:rdf="http://www.w3.org/1999/02/22-rdf-syntax-ns#"
   xmlns:svg="http://www.w3.org/2000/svg"
   xmlns="http://www.w3.org/2000/svg"
   xmlns:sodipodi="http://sodipodi.sourceforge.net/DTD/sodipodi-0.dtd"
   xmlns:inkscape="http://www.inkscape.org/namespaces/inkscape"
   version="1.1"
   id="Capa_1"
   x="0px"
   y="0px"
   viewBox="0 0 512 512"
   style="enable-background:new 0 0 512 512;"
   xml:space="preserve"
   sodipodi:docname="services.svg"
   inkscape:version="0.92.1 r15371"><metadata
     id="metadata75"><rdf:RDF><cc:Work
         rdf:about=""><dc:format>image/svg+xml</dc:format><dc:type
           rdf:resource="http://purl.org/dc/dcmitype/StillImage" /></cc:Work></rdf:RDF></metadata><defs
     id="defs73" /><sodipodi:namedview
     pagecolor="#ffffff"
     bordercolor="#666666"
     borderopacity="1"
     objecttolerance="10"
     gridtolerance="10"
     guidetolerance="10"
     inkscape:pageopacity="0"
     inkscape:pageshadow="2"
     inkscape:window-width="1366"
     inkscape:window-height="707"
     id="namedview71"
     showgrid="false"
     inkscape:zoom="0.70279094"
     inkscape:cx="531.04223"
     inkscape:cy="223.21031"
     inkscape:window-x="0"
     inkscape:window-y="0"
     inkscape:window-maximized="1"
     inkscape:current-layer="Capa_1" /><path
     style="fill:#0084c8"
     d="M467,512H45c-24.813,0-45-20.187-45-45V45C0,20.187,20.187,0,45,0h422c24.813,0,45,20.187,45,45v422  C512,491.813,491.813,512,467,512z"
     id="path2" /><path
     style="fill:#fcd462;fill-opacity:1"
     d="M467,0H256v512h211c24.813,0,45-20.187,45-45V45C512,20.187,491.813,0,467,0z"
     id="path4" /><rect
     id="rect6"
     height="30"
     width="126"
     style="fill:#0084c8"
     y="290"
     x="264" /><rect
     id="rect8"
     height="30"
     width="66"
     style="fill:#005c94"
     y="390"
     x="389" /><rect
     id="rect10"
     height="30"
     width="75"
     style="fill:#005c94"
     y="390"
     x="264" /><path
     style="fill:#ff6600"
     d="M415,345c-22.056,0-40-17.944-40-40s17.944-40,40-40s40,17.944,40,40S437.056,345,415,345z"
     id="path14" /><path
     style="fill:#005c94"
     d="M512,130H0V45C0,20.187,20.187,0,45,0h422c24.813,0,45,20.187,45,45V130z"
     id="path16" /><circle
     style="fill:#BEC8D6;"
     cx="175"
     cy="65"
     r="15"
     id="circle18" /><circle
     style="fill:#FF728B;"
     cx="125"
     cy="65"
     r="15"
     id="circle20" /><circle
     style="fill:#E4187A;"
     cx="75"
     cy="65"
     r="15"
     id="circle22" /><path
     style="fill:#ff9900"
     d="M238,241.032l-91-46.907l-91,46.907v106.819l91,45.234l91-45.234V241.032z"
     id="path24" /><polygon
     style="fill:#ffff3e"
     points="147,194.125 147,393.084 238,347.851 238,241.032 "
     id="polygon26" /><rect
     x="329"
     y="190"
     style="fill:#0084c8"
     width="126"
     height="30"
     id="rect28" /><path
     style="fill:#DAE0E7;"
     d="M364,445c-22.056,0-40-17.944-40-40s17.944-40,40-40s40,17.944,40,40S386.056,445,364,445z"
     id="path30" /><path
     style="fill:#ff9900"
     d="M467,0H256v130h256V45C512,20.187,491.813,0,467,0z"
     id="path32" /><path
     style="fill:#BEC8D6;"
     d="M304,245c-22.056,0-40-17.944-40-40s17.944-40,40-40s40,17.944,40,40S326.056,245,304,245z"
     id="path34" /><path
     style="fill:#fcd462;fill-opacity:1"
     d="M147,393.084L56,347.85V241.032l91,45.995l91-45.995v106.819L147,393.084z"
     id="path36" /><polygon
     style="fill:#ff9900;fill-opacity:1"
     points="238,347.851 238,241.032 147,287.027 147,393.084 "
     id="polygon38" /><g
     id="g4622"
     transform="translate(655.1574,43.06779)"><polygon
       id="polygon4555"
       points="468.308,343.663 238.487,226.784 0.015,343.663 238.488,468.3 "
       style="fill:#44c4a1" /><polygon
       id="polygon4557"
       points="238.517,223.968 384.188,298.083 238.517,377.069 87.29,298.083 "
       style="fill:#31978c" /><polygon
       id="polygon4559"
       points="87.29,187.482 238.517,113.368 384.188,187.482 468.293,230.253 238.517,354.881 0,230.253 "
       style="fill:#27a2db" /><polygon
       id="polygon4561"
       points="238.517,113.368 384.188,187.482 238.517,266.468 87.29,187.482 "
       style="fill:#1c75a1" /><polygon
       id="polygon4563"
       points="468.308,116.886 238.487,0.008 0.015,116.886 238.488,241.523 "
       style="fill:#fcd462" /><g
       id="g4565" /><g
       id="g4567" /><g
       id="g4569" /><g
       id="g4571" /><g
       id="g4573" /><g
       id="g4575" /><g
       id="g4577" /><g
       id="g4579" /><g
       id="g4581" /><g
       id="g4583" /><g
       id="g4585" /><g
       id="g4587" /><g
       id="g4589" /><g
       id="g4591" /><g
       id="g4593" /></g></svg>