<?xml version="1.0" encoding="UTF-8" standalone="no"?>
<!-- Generator: Adobe Illustrator 19.0.0, SVG Export Plug-In . SVG Version: 6.00 Build 0)  -->

<svg
   xmlns:dc="http://purl.org/dc/elements/1.1/"
   xmlns:cc="http://creativecommons.org/ns#"
   xmlns:rdf="http://www.w3.org/1999/02/22-rdf-syntax-ns#"
   xmlns:svg="http://www.w3.org/2000/svg"
   xmlns="http://www.w3.org/2000/svg"
   xmlns:sodipodi="http://sodipodi.sourceforge.net/DTD/sodipodi-0.dtd"
   xmlns:inkscape="http://www.inkscape.org/namespaces/inkscape"
   version="1.1"
   id="Layer_1"
   x="0px"
   y="0px"
   viewBox="0 0 297 297"
   style="enable-background:new 0 0 297 297;"
   xml:space="preserve"
   sodipodi:docname="montDiscos.svg"
   inkscape:version="0.92.1 r15371"><metadata
     id="metadata69"><rdf:RDF><cc:Work
         rdf:about=""><dc:format>image/svg+xml</dc:format><dc:type
           rdf:resource="http://purl.org/dc/dcmitype/StillImage" /></cc:Work></rdf:RDF></metadata><defs
     id="defs67" /><sodipodi:namedview
     pagecolor="#ffffff"
     bordercolor="#666666"
     borderopacity="1"
     objecttolerance="10"
     gridtolerance="10"
     guidetolerance="10"
     inkscape:pageopacity="0"
     inkscape:pageshadow="2"
     inkscape:window-width="1366"
     inkscape:window-height="707"
     id="namedview65"
     showgrid="false"
     inkscape:zoom="0.64305098"
     inkscape:cx="-316.13437"
     inkscape:cy="306.39932"
     inkscape:window-x="0"
     inkscape:window-y="0"
     inkscape:window-maximized="1"
     inkscape:current-layer="Layer_1" /><circle
     style="fill:#0084c8"
     cx="148.5"
     cy="148.5"
     r="148.5"
     id="circle2" /><path
     inkscape:connector-curvature="0"
     id="path6"
     d="m 297,148.5 c 0,-5.26 -0.278,-10.454 -0.811,-15.573 L 229.54,66.203 66.172,229.495 132.858,296.181 C 137.999,296.719 143.217,297 148.5,297 230.514,297 297,230.514 297,148.5 Z"
     style="fill:#005c94" /><circle
     style="fill:#32373b"
     cx="148.5"
     cy="148.5"
     r="115.5"
     id="circle8" /><path
     style="fill:#2c3033"
     d="m 148.5,33 c -0.111,0 -0.222,0.004 -0.333,0.004 v 230.992 c 0.111,0 0.222,0.004 0.333,0.004 C 212.289,264 264,212.289 264,148.5 264,84.711 212.289,33 148.5,33 Z"
     id="path12"
     inkscape:connector-curvature="0" /><circle
     style="fill:#bdc3c7"
     cx="148.5"
     cy="148.5"
     r="49.5"
     id="circle16" /><path
     style="fill:#a1a5a8"
     d="m 148.5,99 c -0.112,0 -0.221,0.008 -0.333,0.008 v 98.983 c 0.112,10e-4 0.221,0.008 0.333,0.008 27.338,0 49.5,-22.162 49.5,-49.5 C 198,121.162 175.838,99 148.5,99 Z"
     id="path20"
     inkscape:connector-curvature="0" /><circle
     style="fill:#32373b"
     cx="148.5"
     cy="148.5"
     r="12.375"
     id="circle24" /><path
     style="fill:#2c3033"
     d="m 148.5,136.125 c -0.112,0 -0.221,0.014 -0.333,0.017 v 24.716 c 0.112,0.003 0.221,0.017 0.333,0.017 6.835,0 12.375,-5.541 12.375,-12.375 0,-6.835 -5.54,-12.375 -12.375,-12.375 z"
     id="path28"
     inkscape:connector-curvature="0" /><g
     id="g34" /><g
     id="g36" /><g
     id="g38" /><g
     id="g40" /><g
     id="g42" /><g
     id="g44" /><g
     id="g46" /><g
     id="g48" /><g
     id="g50" /><g
     id="g52" /><g
     id="g54" /><g
     id="g56" /><g
     id="g58" /><g
     id="g60" /><g
     id="g62" /></svg>