<?xml version="1.0" encoding="UTF-8" standalone="no"?>
<!-- Created with Inkscape (http://www.inkscape.org/) -->

<svg
   xmlns:dc="http://purl.org/dc/elements/1.1/"
   xmlns:cc="http://creativecommons.org/ns#"
   xmlns:rdf="http://www.w3.org/1999/02/22-rdf-syntax-ns#"
   xmlns:svg="http://www.w3.org/2000/svg"
   xmlns="http://www.w3.org/2000/svg"
   xmlns:xlink="http://www.w3.org/1999/xlink"
   xmlns:sodipodi="http://sodipodi.sourceforge.net/DTD/sodipodi-0.dtd"
   xmlns:inkscape="http://www.inkscape.org/namespaces/inkscape"
   width="48"
   height="48"
   id="svg5453"
   version="1.1"
   inkscape:version="0.92.1 r15371"
   sodipodi:docname="notify.svg">
  <defs
     id="defs5455">
    <linearGradient
       id="linearGradient8311-06">
      <stop
         id="stop8313-6"
         style="stop-color:#a9a3d4;stop-opacity:1"
         offset="0" />
      <stop
         offset="0.47001833"
         style="stop-color:#87baff;stop-opacity:1"
         id="stop4462" />
      <stop
         id="stop8315-2"
         style="stop-color:#89ec85;stop-opacity:1"
         offset="1" />
    </linearGradient>
    <linearGradient
       gradientUnits="userSpaceOnUse"
       y2="23.5"
       x2="47"
       y1="23.5"
       x1="0"
       id="linearGradient4460"
       xlink:href="#linearGradient8311-06"
       inkscape:collect="always" />
    <linearGradient
       id="linearGradient4915">
      <stop
         style="stop-color:#8645a3;stop-opacity:1"
         offset="0"
         id="stop4917" />
      <stop
         id="stop4919"
         offset="1"
         style="stop-color:#d164ff;stop-opacity:1" />
    </linearGradient>
    <linearGradient
       id="linearGradient3687-2">
      <stop
         id="stop3689-6"
         offset="0"
         style="stop-color:#1a1a1a;stop-opacity:1" />
      <stop
         style="stop-color:#2c2c2e;stop-opacity:1"
         offset="0.11054216"
         id="stop3691-8" />
      <stop
         style="stop-color:#2b2b2d;stop-opacity:1"
         offset="0.29001436"
         id="stop3693-8" />
      <stop
         style="stop-color:#2a2b2d;stop-opacity:1"
         offset="0.5118711"
         id="stop3695-4" />
      <stop
         style="stop-color:#2b2b2d;stop-opacity:1"
         offset="0.75173318"
         id="stop3699-86" />
      <stop
         id="stop3701-8"
         offset="0.89659214"
         style="stop-color:#323232;stop-opacity:1" />
      <stop
         id="stop3703-9"
         offset="1"
         style="stop-color:#171717;stop-opacity:1" />
    </linearGradient>
    <linearGradient
       id="linearGradient4642">
      <stop
         id="stop4644"
         style="stop-color:#0bac83;stop-opacity:1"
         offset="0" />
      <stop
         id="stop4646"
         style="stop-color:#13ffaf;stop-opacity:1"
         offset="1" />
    </linearGradient>
    <linearGradient
       id="linearGradient4179-7">
      <stop
         id="stop4181-2"
         style="stop-color:#e8d800;stop-opacity:1"
         offset="0" />
      <stop
         id="stop4183-1"
         style="stop-color:#feff68;stop-opacity:1"
         offset="1" />
    </linearGradient>
    <linearGradient
       id="linearGradient4422">
      <stop
         style="stop-color:#ff9300;stop-opacity:1"
         offset="0"
         id="stop4424" />
      <stop
         style="stop-color:#ffd702;stop-opacity:1"
         offset="1"
         id="stop4426" />
    </linearGradient>
    <linearGradient
       gradientTransform="matrix(0.87099538,0,0,0.85053578,-338.50895,580.38722)"
       gradientUnits="userSpaceOnUse"
       y2="504.1911"
       x2="409.93887"
       y1="542.79797"
       x1="409.57144"
       id="linearGradient4222"
       xlink:href="#linearGradient4490"
       inkscape:collect="always" />
    <linearGradient
       inkscape:collect="always"
       id="linearGradient4490">
      <stop
         style="stop-color:#86d0fb;stop-opacity:1"
         offset="0"
         id="stop4492" />
      <stop
         style="stop-color:#2794f5;stop-opacity:1"
         offset="1"
         id="stop4494" />
    </linearGradient>
    <linearGradient
       id="linearGradient4237"
       inkscape:collect="always">
      <stop
         id="stop4239"
         offset="0"
         style="stop-color:#ffc20b;stop-opacity:1" />
      <stop
         id="stop4241"
         offset="1"
         style="stop-color:#ffd351;stop-opacity:1" />
    </linearGradient>
    <linearGradient
       id="linearGradient4500"
       inkscape:collect="always">
      <stop
         id="stop4502"
         offset="0"
         style="stop-color:#ffce3b;stop-opacity:1" />
      <stop
         id="stop4504"
         offset="1"
         style="stop-color:#ffd762;stop-opacity:1" />
    </linearGradient>
    <linearGradient
       inkscape:collect="always"
       id="linearGradient4458">
      <stop
         style="stop-color:#f4ffb5;stop-opacity:1"
         offset="0"
         id="stop4460" />
      <stop
         style="stop-color:#fdffd8;stop-opacity:1"
         offset="1"
         id="stop4462-7" />
    </linearGradient>
    <linearGradient
       inkscape:collect="always"
       id="linearGradient4234">
      <stop
         style="stop-color:#ffce3b;stop-opacity:1"
         offset="0"
         id="stop4236" />
      <stop
         style="stop-color:#fef4ab;stop-opacity:1"
         offset="1"
         id="stop4238" />
    </linearGradient>
    <linearGradient
       inkscape:collect="always"
       id="linearGradient4225">
      <stop
         style="stop-color:#ffcc32;stop-opacity:1"
         offset="0"
         id="stop4227" />
      <stop
         style="stop-color:#ffda6d;stop-opacity:1"
         offset="1"
         id="stop4230" />
    </linearGradient>
    <linearGradient
       inkscape:collect="always"
       xlink:href="#linearGradient4458"
       id="linearGradient4232"
       x1="499.14545"
       y1="986.67102"
       x2="499.14545"
       y2="-2.6225603"
       gradientUnits="userSpaceOnUse" />
    <linearGradient
       inkscape:collect="always"
       xlink:href="#linearGradient4500"
       id="linearGradient4240"
       x1="537.19519"
       y1="986.67102"
       x2="537.19519"
       y2="-2.6225603"
       gradientUnits="userSpaceOnUse" />
    <linearGradient
       inkscape:collect="always"
       xlink:href="#linearGradient4225"
       id="linearGradient4310"
       gradientUnits="userSpaceOnUse"
       x1="499.14545"
       y1="986.67102"
       x2="499.14545"
       y2="-2.6225603" />
    <linearGradient
       inkscape:collect="always"
       xlink:href="#linearGradient4237"
       id="linearGradient4314"
       gradientUnits="userSpaceOnUse"
       x1="499.14545"
       y1="986.67102"
       x2="499.14545"
       y2="-2.6225603" />
    <linearGradient
       inkscape:collect="always"
       xlink:href="#linearGradient4234"
       id="linearGradient4320"
       gradientUnits="userSpaceOnUse"
       x1="537.19519"
       y1="986.67102"
       x2="537.19519"
       y2="-2.6225603" />
    <linearGradient
       inkscape:collect="always"
       xlink:href="#linearGradient4225"
       id="linearGradient4751"
       gradientUnits="userSpaceOnUse"
       x1="499.14545"
       y1="986.67102"
       x2="499.14545"
       y2="-2.6225603" />
    <linearGradient
       inkscape:collect="always"
       xlink:href="#linearGradient4225"
       id="linearGradient4753"
       gradientUnits="userSpaceOnUse"
       x1="499.14545"
       y1="986.67102"
       x2="499.14545"
       y2="-2.6225603" />
    <linearGradient
       inkscape:collect="always"
       xlink:href="#linearGradient4234"
       id="linearGradient4755"
       gradientUnits="userSpaceOnUse"
       x1="537.19519"
       y1="986.67102"
       x2="537.19519"
       y2="-2.6225603" />
    <linearGradient
       inkscape:collect="always"
       xlink:href="#linearGradient4225"
       id="linearGradient4757"
       gradientUnits="userSpaceOnUse"
       x1="499.14545"
       y1="986.67102"
       x2="499.14545"
       y2="-2.6225603" />
    <linearGradient
       inkscape:collect="always"
       xlink:href="#linearGradient4234"
       id="linearGradient4759"
       gradientUnits="userSpaceOnUse"
       x1="537.19519"
       y1="986.67102"
       x2="537.19519"
       y2="-2.6225603" />
    <linearGradient
       inkscape:collect="always"
       xlink:href="#linearGradient4225"
       id="linearGradient4761"
       gradientUnits="userSpaceOnUse"
       x1="499.14545"
       y1="986.67102"
       x2="499.14545"
       y2="-2.6225603" />
    <linearGradient
       inkscape:collect="always"
       xlink:href="#linearGradient4234"
       id="linearGradient4763"
       gradientUnits="userSpaceOnUse"
       x1="537.19519"
       y1="986.67102"
       x2="537.19519"
       y2="-2.6225603" />
    <linearGradient
       inkscape:collect="always"
       xlink:href="#linearGradient4225"
       id="linearGradient4765"
       gradientUnits="userSpaceOnUse"
       x1="499.14545"
       y1="986.67102"
       x2="499.14545"
       y2="-2.6225603" />
    <linearGradient
       inkscape:collect="always"
       xlink:href="#linearGradient4234"
       id="linearGradient4767"
       gradientUnits="userSpaceOnUse"
       x1="537.19519"
       y1="986.67102"
       x2="537.19519"
       y2="-2.6225603" />
    <linearGradient
       inkscape:collect="always"
       xlink:href="#linearGradient4225"
       id="linearGradient4769"
       gradientUnits="userSpaceOnUse"
       x1="499.14545"
       y1="986.67102"
       x2="499.14545"
       y2="-2.6225603" />
    <linearGradient
       inkscape:collect="always"
       xlink:href="#linearGradient4234"
       id="linearGradient4771"
       gradientUnits="userSpaceOnUse"
       x1="537.19519"
       y1="986.67102"
       x2="537.19519"
       y2="-2.6225603" />
    <linearGradient
       inkscape:collect="always"
       xlink:href="#linearGradient4225"
       id="linearGradient4773"
       gradientUnits="userSpaceOnUse"
       x1="499.14545"
       y1="986.67102"
       x2="499.14545"
       y2="-2.6225603" />
    <linearGradient
       inkscape:collect="always"
       xlink:href="#linearGradient4234"
       id="linearGradient4775"
       gradientUnits="userSpaceOnUse"
       x1="537.19519"
       y1="986.67102"
       x2="537.19519"
       y2="-2.6225603" />
    <linearGradient
       inkscape:collect="always"
       xlink:href="#linearGradient4225"
       id="linearGradient4777"
       gradientUnits="userSpaceOnUse"
       x1="499.14545"
       y1="986.67102"
       x2="499.14545"
       y2="-2.6225603" />
    <linearGradient
       inkscape:collect="always"
       xlink:href="#linearGradient4234"
       id="linearGradient4779"
       gradientUnits="userSpaceOnUse"
       x1="537.19519"
       y1="986.67102"
       x2="537.19519"
       y2="-2.6225603" />
    <linearGradient
       inkscape:collect="always"
       xlink:href="#linearGradient4225"
       id="linearGradient4781"
       gradientUnits="userSpaceOnUse"
       x1="499.14545"
       y1="986.67102"
       x2="499.14545"
       y2="-2.6225603" />
    <linearGradient
       inkscape:collect="always"
       xlink:href="#linearGradient4234"
       id="linearGradient4783"
       gradientUnits="userSpaceOnUse"
       x1="537.19519"
       y1="986.67102"
       x2="537.19519"
       y2="-2.6225603" />
    <linearGradient
       inkscape:collect="always"
       xlink:href="#linearGradient4225"
       id="linearGradient4785"
       gradientUnits="userSpaceOnUse"
       x1="499.14545"
       y1="986.67102"
       x2="499.14545"
       y2="-2.6225603" />
    <linearGradient
       inkscape:collect="always"
       xlink:href="#linearGradient4234"
       id="linearGradient4787"
       gradientUnits="userSpaceOnUse"
       x1="537.19519"
       y1="986.67102"
       x2="537.19519"
       y2="-2.6225603" />
    <linearGradient
       inkscape:collect="always"
       xlink:href="#linearGradient4225"
       id="linearGradient4789"
       gradientUnits="userSpaceOnUse"
       x1="499.14545"
       y1="986.67102"
       x2="499.14545"
       y2="-2.6225603" />
    <linearGradient
       inkscape:collect="always"
       xlink:href="#linearGradient4234"
       id="linearGradient4791"
       gradientUnits="userSpaceOnUse"
       x1="537.19519"
       y1="986.67102"
       x2="537.19519"
       y2="-2.6225603" />
    <linearGradient
       inkscape:collect="always"
       xlink:href="#linearGradient4225"
       id="linearGradient4793"
       gradientUnits="userSpaceOnUse"
       x1="499.14545"
       y1="986.67102"
       x2="499.14545"
       y2="-2.6225603" />
    <linearGradient
       inkscape:collect="always"
       xlink:href="#linearGradient4234"
       id="linearGradient4795"
       gradientUnits="userSpaceOnUse"
       x1="537.19519"
       y1="986.67102"
       x2="537.19519"
       y2="-2.6225603" />
    <linearGradient
       inkscape:collect="always"
       xlink:href="#linearGradient4225"
       id="linearGradient4797"
       gradientUnits="userSpaceOnUse"
       x1="499.14545"
       y1="986.67102"
       x2="499.14545"
       y2="-2.6225603" />
    <linearGradient
       inkscape:collect="always"
       xlink:href="#linearGradient4234"
       id="linearGradient4799"
       gradientUnits="userSpaceOnUse"
       x1="537.19519"
       y1="986.67102"
       x2="537.19519"
       y2="-2.6225603" />
    <linearGradient
       inkscape:collect="always"
       xlink:href="#linearGradient4225"
       id="linearGradient4801"
       gradientUnits="userSpaceOnUse"
       x1="499.14545"
       y1="986.67102"
       x2="499.14545"
       y2="-2.6225603" />
    <linearGradient
       inkscape:collect="always"
       xlink:href="#linearGradient4234"
       id="linearGradient4803"
       gradientUnits="userSpaceOnUse"
       x1="537.19519"
       y1="986.67102"
       x2="537.19519"
       y2="-2.6225603" />
    <linearGradient
       inkscape:collect="always"
       xlink:href="#linearGradient4225"
       id="linearGradient4805"
       gradientUnits="userSpaceOnUse"
       x1="499.14545"
       y1="986.67102"
       x2="499.14545"
       y2="-2.6225603" />
    <linearGradient
       inkscape:collect="always"
       xlink:href="#linearGradient4234"
       id="linearGradient4807"
       gradientUnits="userSpaceOnUse"
       x1="537.19519"
       y1="986.67102"
       x2="537.19519"
       y2="-2.6225603" />
  </defs>
  <sodipodi:namedview
     id="base"
     pagecolor="#5a5a5a"
     bordercolor="#666666"
     borderopacity="1.0"
     inkscape:pageopacity="0"
     inkscape:pageshadow="2"
     inkscape:zoom="6.5940921"
     inkscape:cx="13.834405"
     inkscape:cy="30.509205"
     inkscape:document-units="px"
     inkscape:current-layer="g4312"
     showgrid="false"
     fit-margin-top="0"
     fit-margin-left="0"
     fit-margin-right="0"
     fit-margin-bottom="0"
     inkscape:window-width="1366"
     inkscape:window-height="707"
     inkscape:window-x="0"
     inkscape:window-y="0"
     inkscape:window-maximized="1"
     inkscape:showpageshadow="false"
     borderlayer="true"
     showguides="false"
     showborder="false">
    <inkscape:grid
       type="xygrid"
       id="grid4063" />
    <sodipodi:guide
       position="1.1650391e-05,47.999996"
       orientation="4,0"
       id="guide4146"
       inkscape:locked="false" />
    <sodipodi:guide
       position="1.1650391e-05,43.999996"
       orientation="0,48"
       id="guide4148"
       inkscape:locked="false" />
    <sodipodi:guide
       position="48.000012,43.999996"
       orientation="-4,0"
       id="guide4150"
       inkscape:locked="false" />
    <sodipodi:guide
       position="48.000012,47.999996"
       orientation="0,-48"
       id="guide4152"
       inkscape:locked="false" />
    <sodipodi:guide
       position="1.1650391e-05,4.0000264"
       orientation="4,0"
       id="guide4154"
       inkscape:locked="false" />
    <sodipodi:guide
       position="1.1650391e-05,2.6367188e-05"
       orientation="0,48"
       id="guide4156"
       inkscape:locked="false" />
    <sodipodi:guide
       position="48.000012,2.6367188e-05"
       orientation="-4,0"
       id="guide4158"
       inkscape:locked="false" />
    <sodipodi:guide
       position="48.000012,4.0000264"
       orientation="0,-48"
       id="guide4160"
       inkscape:locked="false" />
    <sodipodi:guide
       position="48.000012,48.000026"
       orientation="0,-4"
       id="guide4162"
       inkscape:locked="false" />
    <sodipodi:guide
       position="44.000012,48.000026"
       orientation="48,0"
       id="guide4164"
       inkscape:locked="false" />
    <sodipodi:guide
       position="44.000012,2.6367188e-05"
       orientation="0,4"
       id="guide4166"
       inkscape:locked="false" />
    <sodipodi:guide
       position="48.000012,2.6367188e-05"
       orientation="-48,0"
       id="guide4168"
       inkscape:locked="false" />
    <sodipodi:guide
       position="4.0000422,48.000026"
       orientation="0,-4"
       id="guide4170"
       inkscape:locked="false" />
    <sodipodi:guide
       position="4.2167969e-05,48.000026"
       orientation="48,0"
       id="guide4172"
       inkscape:locked="false" />
    <sodipodi:guide
       position="4.2167969e-05,2.6367188e-05"
       orientation="0,4"
       id="guide4174"
       inkscape:locked="false" />
    <sodipodi:guide
       position="4.0000422,2.6367188e-05"
       orientation="-48,0"
       id="guide4176"
       inkscape:locked="false" />
    <sodipodi:guide
       position="20,30"
       orientation="39.999969,0"
       id="guide4153"
       inkscape:locked="false" />
    <sodipodi:guide
       position="20.000012,4.0000264"
       orientation="0,8"
       id="guide4155"
       inkscape:locked="false" />
    <sodipodi:guide
       position="25,30"
       orientation="-39.999969,0"
       id="guide4157"
       inkscape:locked="false" />
    <sodipodi:guide
       position="28.000012,43.999996"
       orientation="0,-8"
       id="guide4159"
       inkscape:locked="false" />
    <sodipodi:guide
       position="22,11"
       orientation="5,0"
       id="guide4342"
       inkscape:locked="false" />
  </sodipodi:namedview>
  <metadata
     id="metadata5458">
    <rdf:RDF>
      <cc:Work
         rdf:about="">
        <dc:format>image/svg+xml</dc:format>
        <dc:type
           rdf:resource="http://purl.org/dc/dcmitype/StillImage" />
        <dc:title></dc:title>
      </cc:Work>
    </rdf:RDF>
  </metadata>
  <g
     inkscape:label="Capa 1"
     inkscape:groupmode="layer"
     id="layer1"
     transform="translate(-384.57143,-499.798)">
    <g
       transform="translate(392.24401,-502.51656)"
       id="layer1-4"
       inkscape:label="Layer 1">
      <g
         transform="matrix(1.138587,0,0,1.138587,-3.4562036,-142.80276)"
         id="g4413"
         style="stroke-width:1.31742239;stroke-miterlimit:4;stroke-dasharray:none">
        <g
           id="g4312"
           transform="matrix(1.0539376,0,0,1.0539376,-0.91298719,-55.411661)"
           sodipodi:insensitive="true">
          <g
             transform="matrix(0.83333358,0,0,0.83333358,-408.28112,587.90224)"
             id="layer1-0"
             inkscape:label="Capa 1">
            <g
               transform="matrix(1.1124629,0,0,1.1124629,-46.05517,-58.717878)"
               id="g4338-1">
              <g
                 transform="matrix(0.84002598,0,0,0.84002598,94.722843,341.97161)"
                 id="g4340-3">
                <g
                   transform="matrix(1.016661,0,0,1.016661,-5.0483185,-3.8359534)"
                   id="g4414" />
                <g
                   id="g4304" />
                <g
                   id="g4306" />
                <g
                   id="g4308" />
                <g
                   id="g4310" />
                <g
                   id="g4312-3" />
                <g
                   id="g4314" />
                <g
                   id="g4316" />
                <g
                   id="g4318" />
                <g
                   id="g4320" />
                <g
                   id="g4322" />
                <g
                   id="g4324" />
                <g
                   id="g4326" />
                <g
                   id="g4328-3" />
                <g
                   id="g4330-0" />
                <g
                   id="g4332-2" />
              </g>
            </g>
          </g>
          <rect
             ry="1.3608572"
             y="1012.2876"
             x="-1.8070132"
             height="28.918215"
             width="38.323795"
             id="rect4195"
             style="opacity:1;fill:url(#linearGradient4222);fill-opacity:1;stroke:none;stroke-width:0.16553612;stroke-linecap:round;stroke-linejoin:round;stroke-miterlimit:4;stroke-dasharray:none;stroke-opacity:1" />
          <circle
             style="opacity:1;fill:#d5ffff;fill-opacity:1;stroke:none;stroke-width:0.1379212;stroke-linecap:round;stroke-linejoin:round;stroke-miterlimit:4;stroke-dasharray:none;stroke-opacity:1"
             id="path4224"
             cx="33.447628"
             cy="1015.4073"
             r="1.5516133" />
          <circle
             style="opacity:1;fill:#d5ffff;fill-opacity:1;stroke:none;stroke-width:0.1379212;stroke-linecap:round;stroke-linejoin:round;stroke-miterlimit:4;stroke-dasharray:none;stroke-opacity:1"
             id="path4224-4"
             cx="29.635813"
             cy="1015.4402"
             r="1.5516133" />
          <circle
             style="opacity:1;fill:#d5ffff;fill-opacity:1;stroke:none;stroke-width:0.1379212;stroke-linecap:round;stroke-linejoin:round;stroke-miterlimit:4;stroke-dasharray:none;stroke-opacity:1"
             id="path4224-8"
             cx="25.888859"
             cy="1015.477"
             r="1.5516133" />
          <g
             id="g4206"
             transform="matrix(0.02076344,0,0,0.02076344,7.3856734,1017.8304)"
             style="fill:url(#linearGradient4232);fill-opacity:1;stroke:url(#linearGradient4240);stroke-width:9.51243782;stroke-miterlimit:4;stroke-dasharray:none;stroke-opacity:1">
            <g
               id="g4166"
               style="fill:url(#linearGradient4314);fill-opacity:1;stroke:none;stroke-width:9.51243782;stroke-miterlimit:4;stroke-dasharray:none;stroke-opacity:1">
              <path
                 id="path4168"
                 d="m 946.23,206.651 c -0.3,-23 -18,-42 -40.899,-44.101 -190.3,-17.8 -345.601,-119.5 -396.8,-156.7 -10.7,-7.8 -25.2,-7.8 -35.9,0 -51.1,37.2 -206.4,138.9 -396.7,156.7 -22.9,2.101 -40.5,21.101 -40.9,44.101 -2.3,150.1 21.8,659.699 444.1,773.1 7.5,2 15.4,2 22.9,0 422.3,-113.3 446.399,-623.001 444.199,-773.1 z"
                 inkscape:connector-curvature="0"
                 style="fill:url(#linearGradient4751);fill-opacity:1;stroke:none;stroke-width:9.51243782;stroke-miterlimit:4;stroke-dasharray:none;stroke-opacity:1" />
            </g>
            <g
               id="g4170"
               style="fill:url(#linearGradient4753);fill-opacity:1;stroke:url(#linearGradient4755);stroke-width:9.51243782;stroke-miterlimit:4;stroke-dasharray:none;stroke-opacity:1" />
            <g
               id="g4172"
               style="fill:url(#linearGradient4757);fill-opacity:1;stroke:url(#linearGradient4759);stroke-width:9.51243782;stroke-miterlimit:4;stroke-dasharray:none;stroke-opacity:1" />
            <g
               id="g4174"
               style="fill:url(#linearGradient4761);fill-opacity:1;stroke:url(#linearGradient4763);stroke-width:9.51243782;stroke-miterlimit:4;stroke-dasharray:none;stroke-opacity:1" />
            <g
               id="g4176"
               style="fill:url(#linearGradient4765);fill-opacity:1;stroke:url(#linearGradient4767);stroke-width:9.51243782;stroke-miterlimit:4;stroke-dasharray:none;stroke-opacity:1" />
            <g
               id="g4178"
               style="fill:url(#linearGradient4769);fill-opacity:1;stroke:url(#linearGradient4771);stroke-width:9.51243782;stroke-miterlimit:4;stroke-dasharray:none;stroke-opacity:1" />
            <g
               id="g4180"
               style="fill:url(#linearGradient4773);fill-opacity:1;stroke:url(#linearGradient4775);stroke-width:9.51243782;stroke-miterlimit:4;stroke-dasharray:none;stroke-opacity:1" />
            <g
               id="g4182"
               style="fill:url(#linearGradient4777);fill-opacity:1;stroke:url(#linearGradient4779);stroke-width:9.51243782;stroke-miterlimit:4;stroke-dasharray:none;stroke-opacity:1" />
            <g
               id="g4184"
               style="fill:url(#linearGradient4781);fill-opacity:1;stroke:url(#linearGradient4783);stroke-width:9.51243782;stroke-miterlimit:4;stroke-dasharray:none;stroke-opacity:1" />
            <g
               id="g4186"
               style="fill:url(#linearGradient4785);fill-opacity:1;stroke:url(#linearGradient4787);stroke-width:9.51243782;stroke-miterlimit:4;stroke-dasharray:none;stroke-opacity:1" />
            <g
               id="g4188"
               style="fill:url(#linearGradient4789);fill-opacity:1;stroke:url(#linearGradient4791);stroke-width:9.51243782;stroke-miterlimit:4;stroke-dasharray:none;stroke-opacity:1" />
            <g
               id="g4190"
               style="fill:url(#linearGradient4793);fill-opacity:1;stroke:url(#linearGradient4795);stroke-width:9.51243782;stroke-miterlimit:4;stroke-dasharray:none;stroke-opacity:1" />
            <g
               id="g4192"
               style="fill:url(#linearGradient4797);fill-opacity:1;stroke:url(#linearGradient4799);stroke-width:9.51243782;stroke-miterlimit:4;stroke-dasharray:none;stroke-opacity:1" />
            <g
               id="g4194"
               style="fill:url(#linearGradient4801);fill-opacity:1;stroke:url(#linearGradient4803);stroke-width:9.51243782;stroke-miterlimit:4;stroke-dasharray:none;stroke-opacity:1" />
            <g
               id="g4196"
               style="fill:url(#linearGradient4805);fill-opacity:1;stroke:url(#linearGradient4807);stroke-width:9.51243782;stroke-miterlimit:4;stroke-dasharray:none;stroke-opacity:1" />
            <g
               id="g4198"
               style="fill:url(#linearGradient4310);fill-opacity:1;stroke:url(#linearGradient4320);stroke-width:9.51243782;stroke-miterlimit:4;stroke-dasharray:none;stroke-opacity:1" />
          </g>
          <g
             style="fill:#ffffff;fill-opacity:0.85204091"
             transform="matrix(0.39502193,0,0,0.39502193,-151.6636,818.28133)"
             id="layer1-2"
             inkscape:label="Capa 1">
            <g
               style="fill:#ffffff;fill-opacity:0.85204091"
               id="g4284"
               transform="translate(215.31183,348.66317)">
              <g
                 id="g4238"
                 transform="matrix(0.17235131,0,0,0.17235131,181.93896,146.69807)"
                 style="fill:#ffffff;fill-opacity:0.85204091">
                <g
                   id="g4240"
                   style="fill:#ffffff;fill-opacity:0.85204091">
                  <path
                     id="path4244"
                     d="m 164.894,143.085 v 90.351 c 0,8.65 7.014,15.665 15.665,15.665 8.65,0 15.665,-7.015 15.665,-15.665 v -90.351 c 0,-8.651 -7.015,-15.665 -15.665,-15.665 -8.651,0 -15.665,7.015 -15.665,15.665 z"
                     inkscape:connector-curvature="0"
                     style="fill:#ffffff;fill-opacity:0.85204091" />
                  <path
                     id="path4246"
                     d="m 180.559,265.364 c -9.097,0 -16.5,7.399 -16.5,16.5 0,9.098 7.403,16.5 16.5,16.5 9.097,0 16.5,-7.402 16.5,-16.5 0,-9.1 -7.404,-16.5 -16.5,-16.5 z"
                     inkscape:connector-curvature="0"
                     style="fill:#ffffff;fill-opacity:0.85204091" />
                </g>
              </g>
              <g
                 style="fill:#ffffff;fill-opacity:0.85204091"
                 id="g4248" />
              <g
                 style="fill:#ffffff;fill-opacity:0.85204091"
                 id="g4250" />
              <g
                 style="fill:#ffffff;fill-opacity:0.85204091"
                 id="g4252" />
              <g
                 style="fill:#ffffff;fill-opacity:0.85204091"
                 id="g4254" />
              <g
                 style="fill:#ffffff;fill-opacity:0.85204091"
                 id="g4256" />
              <g
                 style="fill:#ffffff;fill-opacity:0.85204091"
                 id="g4258" />
              <g
                 style="fill:#ffffff;fill-opacity:0.85204091"
                 id="g4260" />
              <g
                 style="fill:#ffffff;fill-opacity:0.85204091"
                 id="g4262" />
              <g
                 style="fill:#ffffff;fill-opacity:0.85204091"
                 id="g4264" />
              <g
                 style="fill:#ffffff;fill-opacity:0.85204091"
                 id="g4266" />
              <g
                 style="fill:#ffffff;fill-opacity:0.85204091"
                 id="g4268" />
              <g
                 style="fill:#ffffff;fill-opacity:0.85204091"
                 id="g4270" />
              <g
                 style="fill:#ffffff;fill-opacity:0.85204091"
                 id="g4272" />
              <g
                 style="fill:#ffffff;fill-opacity:0.85204091"
                 id="g4274" />
              <g
                 style="fill:#ffffff;fill-opacity:0.85204091"
                 id="g4276" />
            </g>
          </g>
        </g>
      </g>
      <g
         style="fill:url(#linearGradient4460);fill-opacity:1"
         transform="matrix(0.48796879,0,0,0.48796879,21.356721,1026.8977)"
         id="g3" />
    </g>
  </g>
</svg>
