<?xml version="1.0" encoding="UTF-8" standalone="no"?>
<!-- Created with Inkscape (http://www.inkscape.org/) -->

<svg
   xmlns:osb="http://www.openswatchbook.org/uri/2009/osb"
   xmlns:dc="http://purl.org/dc/elements/1.1/"
   xmlns:cc="http://creativecommons.org/ns#"
   xmlns:rdf="http://www.w3.org/1999/02/22-rdf-syntax-ns#"
   xmlns:svg="http://www.w3.org/2000/svg"
   xmlns="http://www.w3.org/2000/svg"
   xmlns:xlink="http://www.w3.org/1999/xlink"
   xmlns:sodipodi="http://sodipodi.sourceforge.net/DTD/sodipodi-0.dtd"
   xmlns:inkscape="http://www.inkscape.org/namespaces/inkscape"
   width="48"
   height="48"
   id="svg5453"
   version="1.1"
   inkscape:version="0.92.1 r15371"
   sodipodi:docname="espacosTrabalho.svg">
  <defs
     id="defs5455">
    <linearGradient
       osb:paint="gradient"
       id="linearGradient4207">
      <stop
         id="stop3371"
         offset="0"
         style="stop-color:#3498db;stop-opacity:1;" />
      <stop
         id="stop3373"
         offset="1"
         style="stop-color:#3498db;stop-opacity:0;" />
    </linearGradient>
    <linearGradient
       id="linearGradient4422-07">
      <stop
         id="stop4424-83"
         offset="0"
         style="stop-color:#269de0;stop-opacity:1" />
      <stop
         id="stop4426-35"
         offset="1"
         style="stop-color:#1ab4fd;stop-opacity:1" />
    </linearGradient>
    <linearGradient
       id="linearGradient3766">
      <stop
         id="stop3768"
         offset="0"
         style="stop-color:#009f55;stop-opacity:1;" />
      <stop
         id="stop3770"
         offset="1"
         style="stop-color:#0082fc;stop-opacity:1" />
    </linearGradient>
    <radialGradient
       gradientUnits="userSpaceOnUse"
       gradientTransform="matrix(0.73345432,-3.7031134e-7,3.0145077e-7,0.36412241,379.42934,159.06586)"
       r="46.5"
       fy="1028.5083"
       fx="25"
       cy="1028.5083"
       cx="25"
       id="radialGradient3778"
       xlink:href="#linearGradient3766"
       inkscape:collect="always" />
  </defs>
  <sodipodi:namedview
     id="base"
     pagecolor="#ffffff"
     bordercolor="#666666"
     borderopacity="1.0"
     inkscape:pageopacity="0"
     inkscape:pageshadow="2"
     inkscape:zoom="5.9139836"
     inkscape:cx="38.287626"
     inkscape:cy="14.682064"
     inkscape:document-units="px"
     inkscape:current-layer="layer1"
     showgrid="false"
     fit-margin-top="0"
     fit-margin-left="0"
     fit-margin-right="0"
     fit-margin-bottom="0"
     inkscape:window-width="1366"
     inkscape:window-height="707"
     inkscape:window-x="0"
     inkscape:window-y="0"
     inkscape:window-maximized="1"
     inkscape:showpageshadow="false"
     borderlayer="true"
     showguides="false">
    <inkscape:grid
       type="xygrid"
       id="grid4063" />
    <sodipodi:guide
       position="4.2167969e-05,32.000026"
       orientation="32,0"
       id="guide4625"
       inkscape:locked="false" />
    <sodipodi:guide
       position="4.2167969e-05,2.6367188e-05"
       orientation="0,31.999969"
       id="guide4627"
       inkscape:locked="false" />
    <sodipodi:guide
       position="32.000012,2.6367188e-05"
       orientation="-32,0"
       id="guide4629"
       inkscape:locked="false" />
    <sodipodi:guide
       position="32.000012,32.000026"
       orientation="0,-31.999969"
       id="guide4631"
       inkscape:locked="false" />
    <sodipodi:guide
       position="2.0000422,30.000026"
       orientation="28,0"
       id="guide4633"
       inkscape:locked="false" />
    <sodipodi:guide
       position="2.0000422,2.0000264"
       orientation="0,27.999969"
       id="guide4635"
       inkscape:locked="false" />
    <sodipodi:guide
       position="30,17"
       orientation="-28,0"
       id="guide4637"
       inkscape:locked="false" />
    <sodipodi:guide
       position="17,29"
       orientation="0,-27.999969"
       id="guide4639"
       inkscape:locked="false" />
  </sodipodi:namedview>
  <metadata
     id="metadata5458">
    <rdf:RDF>
      <cc:Work
         rdf:about="">
        <dc:format>image/svg+xml</dc:format>
        <dc:type
           rdf:resource="http://purl.org/dc/dcmitype/StillImage" />
        <dc:title></dc:title>
      </cc:Work>
    </rdf:RDF>
  </metadata>
  <g
     inkscape:label="Capa 1"
     inkscape:groupmode="layer"
     id="layer1"
     transform="translate(-384.57143,-499.798)">
    <g
       id="layer1-4"
       inkscape:label="Capa 1"
       transform="matrix(0.98943369,0,0,0.98943369,-46.95452,10.172826)">
      <g
         transform="translate(-34.965532,2.4832225)"
         inkscape:label="Capa 1"
         id="layer1-3" />
    </g>
    <rect
       style="fill:#ffffff;fill-opacity:0;fill-rule:nonzero;stroke:none;stroke-width:0.84957784"
       id="rect3775"
       width="45.473965"
       height="36.526806"
       x="385.59897"
       y="506.55417"
       ry="0" />
    <path
       style="fill:#000000;fill-opacity:0.09589042;fill-rule:nonzero;stroke:none;stroke-width:0.84957784"
       d="m 387.18725,506.533 c -0.89251,0 -1.61582,0.54471 -1.61582,1.21682 v 31.83135 c 0,0.67219 0.72331,1.21683 1.61582,1.21683 h 42.26986 c 0.89251,0 1.61582,-0.54464 1.61582,-1.21683 v -31.83135 c 0,-0.67211 -0.72331,-1.21682 -1.61582,-1.21682 z"
       id="rect3772"
       inkscape:connector-curvature="0"
       sodipodi:nodetypes="sssssssss" />
    <rect
       style="fill:url(#radialGradient3778);fill-opacity:1.0;fill-rule:nonzero;stroke:none;stroke-width:0.8616311"
       id="rect2985-9"
       width="45.31176"
       height="33.863384"
       x="386.07266"
       y="506.93463"
       ry="1.1989689" />
    <path
       id="path3821"
       d="m 387.62958,506.93465 c -0.86409,0 -1.55692,0.5326 -1.55692,1.19678 v 31.46977 c 0,0.66426 0.69283,1.1968 1.55692,1.1968 h 2.39276 l 34.15411,-33.86335 z"
       style="fill:#ffffff;fill-opacity:0.17351601;fill-rule:nonzero;stroke:none;stroke-width:0.84957784"
       inkscape:connector-curvature="0"
       sodipodi:nodetypes="ssssccs" />
    <path
       style="fill:#ffffff;fill-opacity:0.17351601;fill-rule:nonzero;stroke:none;stroke-width:0.84957784"
       d="m 387.62958,506.93465 c -0.86409,0 -1.55692,0.5326 -1.55692,1.19678 v 31.46977 c 0,0.66426 0.69283,1.1968 1.55692,1.1968 h 1.34389 l 19.4698,-33.86335 z"
       id="rect3050"
       inkscape:connector-curvature="0"
       sodipodi:nodetypes="ssssccs" />
    <path
       style="fill:#000000;fill-opacity:0.24200912;fill-rule:evenodd;stroke:none;stroke-width:0.97175729"
       d="m 393.08582,507.83751 c -1.94288,0 -3.50531,1.56249 -3.50531,3.50542 v 24.553 c 0,1.94293 1.56243,3.50542 3.50531,3.50542 h 23.20184 l 1.94233,1.45686 1.94234,-1.45686 h 2.32171 c 1.94287,0 3.50531,-1.56249 3.50531,-3.50542 v -24.553 c 0,-1.94293 -1.56244,-3.50542 -3.50531,-3.50542 z"
       id="rect3841"
       inkscape:connector-curvature="0"
       sodipodi:nodetypes="sssscccsssss" />
    <rect
       style="fill:#2d2d2d;fill-opacity:0.33789954;fill-rule:evenodd;stroke:none;stroke-width:0.97175729"
       id="rect3835"
       width="14.567537"
       height="12.139936"
       x="409.00391"
       y="510.23297" />
    <rect
       style="fill:#000000;fill-opacity:0.78995439;fill-rule:evenodd;stroke:none;stroke-width:0.97175729"
       id="rect3833"
       width="14.567538"
       height="12.139937"
       x="392.00845"
       y="510.23297" />
    <rect
       style="fill:#0e232e;fill-opacity:0.33789954;fill-rule:evenodd;stroke:none;stroke-width:0.97175729"
       id="rect3837"
       width="14.567537"
       height="12.139935"
       x="392.00845"
       y="524.80084" />
    <rect
       style="fill:#2d2d2d;fill-opacity:0.33789954;fill-rule:evenodd;stroke:none;stroke-width:0.97175729"
       id="rect3839"
       width="14.567537"
       height="12.139937"
       x="409.00391"
       y="524.80084" />
    <path
       style="fill:#ffffff;fill-opacity:0.78995439;fill-rule:evenodd;stroke:none;stroke-width:0.97175729"
       d="m 396.37869,515.0889 v 4.85597 h 8.25493 v -4.85597 z m 0.48559,1.45676 h 7.28377 v 2.91362 h -7.28377 z"
       id="rect3843"
       inkscape:connector-curvature="0" />
    <path
       style="fill:#ffffff;fill-opacity:0.38356168;fill-rule:evenodd;stroke:none;stroke-width:0.97175729"
       d="m 393.46518,512.66087 v 4.85597 h 2.42792 v -0.48559 h -1.94234 v -2.91352 h 7.28377 v 0.48558 h 0.48559 v -1.94244 z m 7.76935,4.37038 h -3.88467 v 0.48559 h 4.37026 v -0.48559 z"
       id="path3848"
       inkscape:connector-curvature="0"
       sodipodi:nodetypes="ccccccccccccccccc" />
  </g>
</svg>
