<?xml version="1.0" encoding="UTF-8" standalone="no"?>
<!-- Generator: Adobe Illustrator 19.0.0, SVG Export Plug-In . SVG Version: 6.00 Build 0)  -->

<svg
   xmlns:dc="http://purl.org/dc/elements/1.1/"
   xmlns:cc="http://creativecommons.org/ns#"
   xmlns:rdf="http://www.w3.org/1999/02/22-rdf-syntax-ns#"
   xmlns:svg="http://www.w3.org/2000/svg"
   xmlns="http://www.w3.org/2000/svg"
   xmlns:sodipodi="http://sodipodi.sourceforge.net/DTD/sodipodi-0.dtd"
   xmlns:inkscape="http://www.inkscape.org/namespaces/inkscape"
   version="1.1"
   id="Layer_1"
   x="0px"
   y="0px"
   viewBox="0 0 352.289 352.289"
   style="enable-background:new 0 0 352.289 352.289;"
   xml:space="preserve"
   sodipodi:docname="inicializacao.svg"
   inkscape:version="0.92.1 r15371"><metadata
     id="metadata59"><rdf:RDF><cc:Work
         rdf:about=""><dc:format>image/svg+xml</dc:format><dc:type
           rdf:resource="http://purl.org/dc/dcmitype/StillImage" /><dc:title></dc:title></cc:Work></rdf:RDF></metadata><defs
     id="defs57"><style
       id="style4625">.cls-1,.cls-14{fill:none;}.cls-2{fill:#e6e6e6;}.cls-3{fill:#333;}.cls-4{fill:#b3bcc9;}.cls-13,.cls-5{fill:#fff;}.cls-6{fill:#b3b3b3;}.cls-7{opacity:0.44;}.cls-11,.cls-8{fill:#e6e9ec;}.cls-9{clip-path:url(#clip-path);}.cls-10{fill:#4d6281;}.cls-11{opacity:0.5;}.cls-12{fill:#334b6f;}.cls-13,.cls-14{stroke:#334b6f;stroke-miterlimit:10;stroke-width:3px;}</style><clipPath
       id="clip-path"><rect
         height="385.87"
         width="759.01"
         y="75.79"
         x="95.5"
         class="cls-1"
         data-name="&lt;Clipping Path&gt;"
         id="_Clipping_Path_" /></clipPath></defs><sodipodi:namedview
     pagecolor="#ffffff"
     bordercolor="#666666"
     borderopacity="1"
     objecttolerance="10"
     gridtolerance="10"
     guidetolerance="10"
     inkscape:pageopacity="0"
     inkscape:pageshadow="2"
     inkscape:window-width="1366"
     inkscape:window-height="707"
     id="namedview55"
     showgrid="false"
     inkscape:zoom="1.4444817"
     inkscape:cx="183.51474"
     inkscape:cy="148.86602"
     inkscape:window-x="0"
     inkscape:window-y="0"
     inkscape:window-maximized="1"
     inkscape:current-layer="Layer_1" /><rect
     id="rect2"
     height="31.083"
     width="49.935001"
     style="fill:#1e252b"
     y="263.39499"
     x="156.675" /><path
     inkscape:connector-curvature="0"
     id="path4"
     d="m 341.289,67.567 c 0,-12.354 -10.109,-22.463 -22.463,-22.463 H 22.463 C 10.107,45.103 0,55.212 0,67.567 v 174.365 c 0,12.355 10.107,22.463 22.463,22.463 h 296.363 c 12.354,0 22.463,-10.109 22.463,-22.463 z"
     style="fill:#005c94" /><path
     inkscape:connector-curvature="0"
     id="path6"
     d="m 0,231.938 v 9.994 c 0,12.355 10.107,22.463 22.463,22.463 h 296.363 c 12.354,0 22.463,-10.109 22.463,-22.463 v -9.994 z"
     style="fill:#1e252b" /><path
     inkscape:connector-curvature="0"
     id="path8"
     d="m 352.289,67.567 c 0,-12.354 -10.109,-22.463 -22.463,-22.463 H 33.463 C 21.107,45.103 11,55.212 11,67.567 v 174.365 c 0,12.355 10.107,22.463 22.463,22.463 h 296.363 c 12.354,0 22.463,-10.109 22.463,-22.463 z"
     style="fill:#19aeff" /><path
     d="m 141.53509,235.08464 0.30429,-0.0609 0.29821,-0.0548 1.64317,-0.34081 c 0.52339,-0.10954 1.02243,-0.213 1.49712,-0.32255 0.94939,-0.20692 1.79532,-0.39558 2.52563,-0.57207 0.7303,-0.17649 1.35714,-0.32255 1.86226,-0.45643 v 0 c 0.85787,-0.21347 1.40677,-1.05141 1.25977,-1.92313 l -0.86419,-5.16688 -0.86419,-5.16688 c -0.14881,-0.87304 -0.94366,-1.48508 -1.82575,-1.40583 h -0.0304 c -0.5173,0.0426 -1.15631,0.0974 -1.91095,0.17649 -0.75465,0.0791 -1.61275,0.17041 -2.57431,0.27995 -0.48078,0.0548 -0.99199,0.11563 -1.52146,0.18258 l -1.66752,0.213 -0.29821,0.0426 -0.30429,0.0426 c -0.76511,0.10918 -1.54433,-0.0523 -2.20308,-0.45643 -0.66012,-0.40384 -1.1609,-1.02283 -1.418,-1.75273 v 0 0 c -0.25905,-0.72823 -0.25905,-1.52352 0,-2.25176 0.25784,-0.72657 0.7616,-1.34012 1.42409,-1.73446 l 0.26169,-0.15823 0.25561,-0.15215 1.43017,-0.88245 c 0.45644,-0.27994 0.88853,-0.54772 1.29628,-0.80941 0.82159,-0.5173 1.54581,-0.98591 2.17873,-1.39975 0.63293,-0.41383 1.1624,-0.76681 1.59449,-1.06502 v 0 c 0.73307,-0.49494 0.96118,-1.47102 0.52339,-2.23959 l -2.58649,-4.55829 -2.58648,-4.55829 c -0.43705,-0.7677 -1.38973,-1.07203 -2.1909,-0.69987 v 0 c -0.4747,0.21909 -1.05285,0.48686 -1.73446,0.8155 -0.68162,0.32863 -1.45452,0.71204 -2.3248,1.14413 -0.43818,0.21301 -0.88853,0.44427 -1.36322,0.69379 l -1.49103,0.7729 -0.26778,0.13997 -0.26778,0.14606 c -0.68219,0.36384 -1.47005,0.47793 -2.22742,0.32255 -0.7573,-0.15485 -1.4384,-0.56523 -1.92921,-1.16239 v 0 0 c -0.49259,-0.59423 -0.76552,-1.33997 -0.7729,-2.11178 -0.008,-0.77104 0.25505,-1.5204 0.74247,-2.11788 l 0.19475,-0.23734 0.18866,-0.23127 1.04068,-1.31454 c 0.33472,-0.41992 0.65118,-0.82159 0.94331,-1.21716 0.60858,-0.76682 1.11979,-1.45452 1.57014,-2.05702 0.45035,-0.6025 0.83376,-1.11979 1.13197,-1.5458 v 0 0 c 0.51881,-0.71549 0.3995,-1.70976 -0.27386,-2.28219 l -3.99232,-3.40198 -3.80365,-3.61499 c -0.67197,-0.57508 -1.67285,-0.53801 -2.30044,0.0852 v 0 0 c -0.37124,0.36515 -0.82159,0.82158 -1.35106,1.35714 -0.52947,0.53555 -1.12588,1.16239 -1.78924,1.86835 -0.33472,0.34689 -0.68161,0.72422 -1.04676,1.1198 l -1.13805,1.21716 -0.20084,0.22518 -0.20692,0.22517 c -0.51503,0.57467 -1.21462,0.95138 -1.97789,1.06503 -0.76613,0.11474 -1.5484,-0.0378 -2.21525,-0.4321 v 0 0 c -0.66613,-0.39089 -1.17755,-0.999 -1.44843,-1.72229 -0.26266,-0.72552 -0.26266,-1.52016 0,-2.24567 l 0.0974,-0.28604 0.0974,-0.28603 c 0.18257,-0.55381 0.35906,-1.08328 0.52947,-1.59449 0.1704,-0.51121 0.32863,-0.992 0.47469,-1.45452 0.29212,-0.92505 0.54773,-1.74664 0.76682,-2.47085 0.21909,-0.72422 0.39558,-1.33889 0.53555,-1.82575 v 0 c 0.24252,-0.85057 -0.21102,-1.74441 -1.04068,-2.05093 l -4.91736,-1.82575 -4.91736,-1.82576 c -0.8283,-0.30854 -1.75478,0.07 -2.13004,0.87028 v 0 c -0.22518,0.46861 -0.49295,1.05285 -0.80333,1.74055 -0.31038,0.6877 -0.65727,1.47886 -1.04068,2.36739 -0.19475,0.44427 -0.39558,0.91288 -0.60858,1.40583 -0.21301,0.49295 -0.41993,1.01025 -0.6451,1.54581 l -0.10955,0.27994 -0.11563,0.27995 c -0.28839,0.71552 -0.81802,1.30759 -1.49711,1.67361 -0.68068,0.36777 -1.46714,0.49025 -2.22742,0.34689 h -0.0609 c -0.76027,-0.13836 -1.44994,-0.53368 -1.95356,-1.11979 -0.50316,-0.58507 -0.78527,-1.32804 -0.79724,-2.09962 v -0.60858 c 0,-0.60859 -0.0304,-1.14414 -0.0487,-1.67969 -0.0182,-0.53556 -0.0304,-1.04677 -0.0548,-1.52755 -0.0426,-0.96765 -0.0791,-1.82575 -0.12172,-2.58648 -0.0426,-0.76073 -0.0852,-1.39366 -0.12171,-1.91096 v 0 c -0.0634,-0.88293 -0.79452,-1.56899 -1.6797,-1.57623 l -5.31902,-0.073 -5.24599,-0.0487 c -0.88374,-0.007 -1.62488,0.66559 -1.70404,1.5458 v 0.0304 c -0.0487,0.5173 -0.10346,1.15631 -0.15823,1.90487 -0.0548,0.74856 -0.10955,1.61275 -0.1704,2.5804 -0.0304,0.48078 -0.0548,0.99199 -0.0791,1.52754 -0.0243,0.53556 -0.0487,1.09546 -0.0791,1.67361 v 0.30429 0.31038 c -0.0249,0.77197 -0.32002,1.51071 -0.83376,2.08744 -0.51293,0.57846 -1.20908,0.96306 -1.97181,1.08937 h -0.10346 c -0.7632,0.129 -1.54755,-0.008 -2.22133,-0.38949 -0.67303,-0.37913 -1.19198,-0.98206 -1.46669,-1.70404 l -0.10954,-0.29212 -0.10955,-0.28603 c -0.21909,-0.54164 -0.41992,-1.06503 -0.60858,-1.55798 -0.18866,-0.49295 -0.38949,-0.96765 -0.57816,-1.418 -0.3834,-0.87636 -0.69987,-1.67361 -0.99199,-2.34913 -0.29212,-0.67553 -0.55381,-1.27803 -0.7729,-1.75273 v 0 c -0.36155,-0.80821 -1.28347,-1.20294 -2.11787,-0.90679 l -4.94779,1.74664 -4.9417,1.71012 c -0.83621,0.29421 -1.30537,1.18217 -1.0772,2.03876 v 0 c 0.13389,0.50512 0.29821,1.11979 0.50513,1.82575 0.20692,0.70596 0.45035,1.55797 0.72421,2.48302 0.13389,0.46253 0.28604,0.95548 0.44427,1.4606 0.15823,0.50513 0.32864,1.04068 0.49904,1.60058 l 0.0913,0.27995 0.0913,0.28603 c 0.24117,0.73333 0.21749,1.52801 -0.0669,2.24568 -0.28493,0.71995 -0.80938,1.31963 -1.48495,1.69795 v 0 0 c -0.67304,0.38305 -1.45743,0.52274 -2.22133,0.39557 -0.76086,-0.12576 -1.45395,-0.5132 -1.95964,-1.09544 l -0.19474,-0.22518 -0.19475,-0.22518 -1.11371,-1.25368 c -0.35298,-0.40166 -0.69379,-0.77899 -1.02851,-1.13805 -0.65118,-0.71813 -1.21716,-1.35106 -1.7588,-1.89878 -0.54164,-0.54773 -0.96157,-1.01025 -1.32672,-1.38149 v 0 0 c -0.61618,-0.63593 -1.61762,-0.69157 -2.30045,-0.1278 l -4.05317,3.33504 -4.05316,3.33504 c -0.68155,0.56141 -0.81674,1.55256 -0.31042,2.27598 v 0 c 0.2982,0.42601 0.66335,0.9494 1.10762,1.56407 0.44427,0.61467 0.95548,1.30845 1.53363,2.08744 0.28604,0.38949 0.60859,0.79724 0.91896,1.21717 l 1.02243,1.3328 0.18866,0.23734 0.18866,0.24344 c 0.47702,0.60569 0.7268,1.35934 0.70595,2.13004 -0.0209,0.77201 -0.30669,1.51334 -0.80941,2.09961 v 0.0426 c -0.50268,0.58837 -1.19246,0.98591 -1.95356,1.12588 -0.75966,0.14333 -1.54552,0.0163 -2.22133,-0.35906 l -0.26778,-0.15215 -0.26777,-0.14606 -1.57015,-0.74856 c -0.46861,-0.2556 -0.91896,-0.49295 -1.35106,-0.71812 -0.8581,-0.45035 -1.631,-0.84593 -2.30044,-1.18674 -0.66945,-0.34081 -1.2476,-0.60858 -1.71621,-0.84593 v 0 c -0.80888,-0.40599 -1.79403,-0.10616 -2.23959,0.68161 l -2.65951,4.50352 -2.6656,4.51569 c -0.4489,0.76087 -0.23683,1.73904 0.48687,2.24568 v 0 c 0.42601,0.30429 0.94939,0.66944 1.57623,1.08936 0.62684,0.41993 1.34497,0.90679 2.15439,1.43626 0.40166,0.26778 0.83376,0.54773 1.28411,0.83376 l 1.418,0.90679 0.25561,0.15823 0.2556,0.15824 c 0.65548,0.40577 1.14848,1.02793 1.39366,1.7588 0.24388,0.73128 0.22883,1.52418 -0.0426,2.24568 v 0.0304 0 c -0.26968,0.72556 -0.78122,1.33597 -1.44843,1.72838 -0.66502,0.39295 -1.44634,0.54147 -2.20916,0.41992 l -0.29821,-0.0487 -0.29212,-0.0487 -1.66143,-0.24344 c -0.52947,-0.0791 -1.0346,-0.15214 -1.51538,-0.213 -0.96156,-0.1278 -1.82575,-0.23735 -2.56822,-0.32864 -0.74247,-0.0913 -1.38757,-0.15823 -1.90487,-0.20692 h -0.0304 c -0.87227,-0.0812 -1.6631,0.5146 -1.82575,1.3754 l -0.95548,5.15471 -0.95547,5.15471 c -0.16094,0.8652 0.36827,1.7093 1.21716,1.94138 v 0 c 0.50513,0.13998 1.12588,0.30429 1.82576,0.48687 0.69987,0.18257 1.57014,0.38949 2.51953,0.60858 0.46861,0.11563 0.96765,0.23126 1.49103,0.34689 l 1.63709,0.36516 0.29821,0.0608 0.30429,0.0609 c 0.75511,0.15883 1.43103,0.57644 1.91096,1.18066 48.063462,9.64269 84.38451,13.3345 120.54822,0.0368 z M 48.45832,210.57069 c 11.01524,-12.94424 28.7473,-17.97184 44.91686,-12.73536 16.16952,5.23646 27.58707,19.70411 28.92347,36.64815 -3.08717,81.56105 -117.07686,30.25085 -73.83424,-23.91887 z"
     class="cls-10"
     data-name="&lt;Compound Path&gt;"
     id="_Compound_Path_5-7"
     inkscape:connector-curvature="0"
     style="fill:#ffffff;stroke-width:0.60858405"
     sodipodi:nodetypes="cccccccccccccccccccccccccccccccccccccccccccccccccccccscccccccccsccccccccccccccsscccccccsccccccccccsccccccccccccsccccccccccscscccccccscscccccccccccccsccccccccscccccccccccccccccccccccccccccccccccccccccccccccccccccccccccc" /><path
     inkscape:connector-curvature="0"
     id="path18"
     d="m 11,231.938 v 9.994 c 0,12.355 10.107,22.463 22.463,22.463 h 296.363 c 12.354,0 22.463,-10.109 22.463,-22.463 v -9.994 z"
     style="fill:#333e48" /><rect
     id="rect20"
     height="14.264"
     width="104.34"
     style="fill:#333e48"
     y="292.92099"
     x="129.47301" /><g
     id="g24" /><g
     id="g26" /><g
     id="g28" /><g
     id="g30" /><g
     id="g32" /><g
     id="g34" /><g
     id="g36" /><g
     id="g38" /><g
     id="g40" /><g
     id="g42" /><g
     id="g44" /><g
     id="g46" /><g
     id="g48" /><g
     id="g50" /><g
     id="g52" /><g
     id="g4604"
     transform="matrix(0.68602868,0,0,0.64352243,2.2241163,-24.639579)"><polygon
       id="polygon4546"
       points="213.685,122.971 278.535,294.731 296.603,247.146 512,247.146 512,280.537 319.643,280.537 278.446,389.029 211.105,210.67 179.918,280.537 0,280.537 0,247.146 158.257,247.146 "
       style="fill:#f1c04f" /><polygon
       id="polygon4548"
       points="512,280.537 512,247.146 296.603,247.146 278.535,294.731 256,235.045 256,329.579 278.446,389.029 319.643,280.537 "
       style="fill:#e88c4a" /><g
       id="g4550" /><g
       id="g4552" /><g
       id="g4554" /><g
       id="g4556" /><g
       id="g4558" /><g
       id="g4560" /><g
       id="g4562" /><g
       id="g4564" /><g
       id="g4566" /><g
       id="g4568" /><g
       id="g4570" /><g
       id="g4572" /><g
       id="g4574" /><g
       id="g4576" /><g
       id="g4578" /></g><g
     id="g4789"
     transform="matrix(0.65594398,0,0,0.65594398,-393.33162,64.466097)"><circle
       id="circle4659"
       r="4.7800002"
       cy="87.992386"
       cx="818.89819"
       class="cls-12"
       style="fill:#334b6f" /><circle
       id="circle4661"
       r="4.7800002"
       cy="50.272404"
       cx="667.10822"
       class="cls-12"
       style="fill:#334b6f" /><polygon
       transform="translate(495.93822,-99.547605)"
       id="polygon4667"
       points="272.61,168.9 294.13,168.9 304.89,187.54 294.13,206.17 272.61,206.17 261.85,187.54 "
       class="cls-11"
       style="opacity:0.5;fill:#e6e9ec" /><polygon
       transform="translate(495.93822,-99.547605)"
       id="polygon4669"
       points="280.25,182.15 286.48,182.15 289.59,187.54 286.48,192.93 280.25,192.93 277.14,187.54 "
       class="cls-12"
       style="fill:#334b6f" /><polygon
       transform="translate(495.93822,-99.547605)"
       id="polygon4675"
       points="157.7,164.2 184.65,164.2 198.12,187.54 184.65,210.87 157.7,210.87 144.23,187.54 "
       class="cls-11"
       style="opacity:0.5;fill:#e6e9ec" /><line
       id="line4677"
       y2="87.992386"
       x2="781.66821"
       y1="87.992386"
       x1="1006.3782"
       class="cls-13"
       style="fill:#ffffff;stroke:#334b6f;stroke-width:3px;stroke-miterlimit:10" /><polygon
       transform="translate(495.93822,-99.547605)"
       id="polygon4679"
       points="166.72,179.82 175.63,179.82 180.08,187.54 175.63,195.25 166.72,195.25 162.27,187.54 "
       class="cls-12"
       style="fill:#334b6f" /><polyline
       transform="translate(495.93822,-99.547605)"
       id="polyline4685"
       points="510.44 121.25 171.17 121.25 171.17 187.54"
       class="cls-14"
       style="fill:none;stroke:#334b6f;stroke-width:3px;stroke-miterlimit:10" /></g><g
     transform="matrix(0.73611809,0,0,0.73611809,-649.29259,-12.262473)"
     id="g4799-5"><polygon
       transform="translate(495.93822,-99.547605)"
       id="polygon4657-3"
       points="829.55,417.78 802.6,417.78 789.13,394.44 802.6,371.11 829.55,371.11 843.02,394.44 "
       class="cls-11"
       style="opacity:0.5;fill:#e6e9ec" /><circle
       id="circle4663-5"
       r="4.7800002"
       cy="294.8924"
       cx="1137.6782"
       class="cls-12"
       style="fill:#334b6f" /><circle
       id="circle4665-6"
       r="4.7800002"
       cy="294.8924"
       cx="1262.0182"
       class="cls-12"
       style="fill:#334b6f" /><polygon
       transform="translate(495.93822,-99.547605)"
       id="polygon4671-2"
       points="694.66,413.08 673.14,413.08 662.38,394.44 673.14,375.8 694.66,375.8 705.42,394.44 "
       class="cls-11"
       style="opacity:0.5;fill:#e6e9ec" /><polygon
       transform="translate(495.93822,-99.547605)"
       id="polygon4673-9"
       points="687.01,399.83 680.79,399.83 677.68,394.44 680.79,389.05 687.01,389.05 690.13,394.44 "
       class="cls-12"
       style="fill:#334b6f" /><polygon
       transform="translate(495.93822,-99.547605)"
       id="polygon4681-1"
       points="820.53,402.15 811.62,402.15 807.17,394.44 811.62,386.73 820.53,386.73 824.98,394.44 "
       class="cls-12"
       style="fill:#334b6f" /><polyline
       transform="translate(495.93822,-99.547605)"
       id="polyline4683-2"
       points="683.9 394.44 616.31 394.44 616.31 354.38"
       class="cls-14"
       style="fill:none;stroke:#334b6f;stroke-width:3px;stroke-miterlimit:10" /><polyline
       transform="translate(495.93822,-99.547605)"
       id="polyline4687-7"
       points="814.45 394.44 735.38 394.44 733.24 312.88"
       class="cls-14"
       style="fill:none;stroke:#334b6f;stroke-width:3px;stroke-miterlimit:10" /></g></svg>