<?xml version="1.0" encoding="UTF-8" standalone="no"?>
<!-- Generator: Adobe Illustrator 18.0.0, SVG Export Plug-In . SVG Version: 6.00 Build 0)  -->

<svg
   xmlns:dc="http://purl.org/dc/elements/1.1/"
   xmlns:cc="http://creativecommons.org/ns#"
   xmlns:rdf="http://www.w3.org/1999/02/22-rdf-syntax-ns#"
   xmlns:svg="http://www.w3.org/2000/svg"
   xmlns="http://www.w3.org/2000/svg"
   xmlns:sodipodi="http://sodipodi.sourceforge.net/DTD/sodipodi-0.dtd"
   xmlns:inkscape="http://www.inkscape.org/namespaces/inkscape"
   version="1.1"
   id="Capa_1"
   x="0px"
   y="0px"
   viewBox="0 0 421.38 421.38"
   style="enable-background:new 0 0 421.38 421.38;"
   xml:space="preserve"
   sodipodi:docname="mouse.svg"
   inkscape:version="0.92.1 r15371"><metadata
     id="metadata47"><rdf:RDF><cc:Work
         rdf:about=""><dc:format>image/svg+xml</dc:format><dc:type
           rdf:resource="http://purl.org/dc/dcmitype/StillImage" /><dc:title></dc:title></cc:Work></rdf:RDF></metadata><defs
     id="defs45" /><sodipodi:namedview
     pagecolor="#ffffff"
     bordercolor="#666666"
     borderopacity="1"
     objecttolerance="10"
     gridtolerance="10"
     guidetolerance="10"
     inkscape:pageopacity="0"
     inkscape:pageshadow="2"
     inkscape:window-width="1366"
     inkscape:window-height="707"
     id="namedview43"
     showgrid="false"
     inkscape:zoom="0.42696492"
     inkscape:cx="721.72283"
     inkscape:cy="298.51699"
     inkscape:window-x="0"
     inkscape:window-y="0"
     inkscape:window-maximized="1"
     inkscape:current-layer="Capa_1" /><path
     style="fill:#999999;stroke-width:1.09723508"
     d="m 101.45864,17.97 h 266.88603 c 21.85124,0 39.54893,14.71 39.54893,32.85 v 337.71 c 0,18.14 -17.69769,32.85 -39.54893,32.85 H 56.347575 c -21.839194,0 -39.548928,-14.71 -39.548928,-32.85 V 50.82 c 0,-18.14 17.709734,-32.85 39.548928,-32.85 z m 113.84312,190.26 c -41.63172,0 -75.38976,28.03 -75.38976,62.62 v 42.53 c 0,34.59 33.75804,62.62 75.38976,62.62 41.63172,0 75.38976,-28.03 75.38976,-62.62 v -42.53 c 0,-17.29 -8.4395,-32.95 -22.07998,-44.28 -13.64046,-11.33 -32.49392,-18.34 -53.30978,-18.34 z"
     id="path6"
     inkscape:connector-curvature="0" /><g
     id="g12" /><g
     id="g14" /><g
     id="g16" /><g
     id="g18" /><g
     id="g20" /><g
     id="g22" /><g
     id="g24" /><g
     id="g26" /><g
     id="g28" /><g
     id="g30" /><g
     id="g32" /><g
     id="g34" /><g
     id="g36" /><g
     id="g38" /><g
     id="g40" /><path
     style="fill:#ffffff"
     d="m 150.75957,122.6181 -17.60686,9.48675 -46.091368,-85.542945 c -3.56512,-6.616659 -11.84852,-9.098503 -18.46429,-5.533857 -6.65188,3.584094 -9.13372,11.867491 -5.56908,18.483269 L 82.082112,94.8747 c 8.79564,16.32421 2.67111,36.7618 -13.65397,45.55791 -7.90988,4.26192 -17.00361,5.18826 -25.60719,2.60972 -8.614755,-2.59297 -15.695911,-8.36701 -19.950718,-16.26369 L -48.863818,-6.355651 -31.256956,-15.8424 40.477096,117.29189 c 1.724691,3.20093 4.599856,5.54342 8.097306,6.59532 3.47476,1.04141 7.16078,0.66607 10.36699,-1.06146 6.61666,-3.56512 9.09898,-11.84764 5.53386,-18.4643 L 45.421112,68.998066 c -8.796111,-16.325082 -2.67111,-36.761793 13.65397,-45.557907 16.3603,-8.815087 36.79701,-2.690085 45.593118,13.634997 z"
     id="path10"
     inkscape:connector-curvature="0" /><path
     inkscape:connector-curvature="0"
     style="fill:#38454f;stroke-width:5.8674469"
     d="M 130.73484,304.40881 C 126.73665,286.63487 119.82895,269.69545 110.65048,253.95955 96.274462,229.30714 72.899211,205.17138 67.274733,182.46186 60.94954,165.25523 66.83291,145.94269 81.680602,135.18999 v 0 C 113.05622,106.47419 146.94988,88.678505 182.54471,80.843424 v 0 c 17.14659,-6.486126 36.5167,-0.780401 47.4029,13.968713 23.74366,25.710123 41.55675,56.308593 52.19482,89.646653 l 6.50966,20.4064 c 11.32852,10.41183 21.34307,23.01128 29.23051,37.64992 33.04712,61.33355 17.05299,134.10821 -35.72155,162.54364 -52.77455,28.43544 -107.44349,17.06208 -140.49061,-44.27148 -8.96485,-16.65079 -7.10409,-39.33447 -10.9356,-56.37846 z"
     id="path4524" /><path
     inkscape:connector-curvature="0"
     style="fill:#19aeff;stroke-width:5.8674469"
     d="m 282.15038,184.46117 6.50966,20.4064 c 11.32852,10.41183 21.34307,23.01128 29.23052,37.64992 8.40789,15.60457 13.60663,31.94519 15.86501,48.11055 -49.41909,53.00738 -49.22675,-72.16412 -52.6925,-109.2734 0.35198,1.03671 0.75599,2.0587 1.08731,3.10653 z"
     id="path4526" /><path
     inkscape:connector-curvature="0"
     style="fill:#19aeff;stroke-width:5.8674469"
     d="m 140.82705,358.87564 c -7.89827,-16.45234 -6.39798,-38.04871 -10.09221,-54.46683 -3.99819,-17.77394 -10.90589,-34.71336 -20.08436,-50.44926 -0.22201,-0.38693 -0.46711,-0.76805 -0.69415,-1.15227 40.21952,41.59308 94.58329,103.178 30.87074,106.06835 z"
     id="path4528" /><g
     id="g4643"
     style="stroke:#19aeff"
     transform="matrix(1.0479747,-0.56465898,0.56465898,1.0479747,-164.93435,82.933804)"><path
       id="path4530"
       d="m 209.68168,229.07741 v 0 c 5.42179,0 9.8578,-4.43601 9.8578,-9.8578 v -39.43123 c 0,-5.4218 -4.43601,-9.85781 -9.8578,-9.85781 v 0 c -5.4218,0 -9.85781,4.43601 -9.85781,9.85781 v 39.43123 c 0,5.42179 4.43601,9.8578 9.85781,9.8578 z"
       style="fill:#38454f;stroke:#19aeff;stroke-width:9.85780716;stroke-linecap:round;stroke-linejoin:round;stroke-miterlimit:10"
       inkscape:connector-curvature="0" /><line
       id="line4532"
       y2="130.49934"
       x2="209.68169"
       y1="169.93057"
       x1="209.68169"
       style="fill:#ffffff;stroke:#19aeff;stroke-width:9.85780716;stroke-linecap:round;stroke-linejoin:round;stroke-miterlimit:10" /><line
       id="line4534"
       y2="258.65085"
       x2="209.68169"
       y1="229.07741"
       x1="209.68169"
       style="fill:none;stroke:#19aeff;stroke-width:9.85780716;stroke-linecap:round;stroke-linejoin:round;stroke-miterlimit:10" /></g><circle
     style="fill:#ffffff;stroke-width:5.8674469"
     cx="59.20359"
     cy="402.42441"
     r="23.469788"
     id="circle4536"
     transform="rotate(-28.31622)" /><g
     id="g4538"
     transform="matrix(4.9289035,0,0,4.9289035,59.424054,125.57044)" /><g
     id="g4540"
     transform="matrix(4.9289035,0,0,4.9289035,59.424054,125.57044)" /><g
     id="g4542"
     transform="matrix(4.9289035,0,0,4.9289035,59.424054,125.57044)" /><g
     id="g4544"
     transform="matrix(4.9289035,0,0,4.9289035,59.424054,125.57044)" /><g
     id="g4546"
     transform="matrix(4.9289035,0,0,4.9289035,59.424054,125.57044)" /><g
     id="g4548"
     transform="matrix(4.9289035,0,0,4.9289035,59.424054,125.57044)" /><g
     id="g4550"
     transform="matrix(4.9289035,0,0,4.9289035,59.424054,125.57044)" /><g
     id="g4552"
     transform="matrix(4.9289035,0,0,4.9289035,59.424054,125.57044)" /><g
     id="g4554"
     transform="matrix(4.9289035,0,0,4.9289035,59.424054,125.57044)" /><g
     id="g4556"
     transform="matrix(4.9289035,0,0,4.9289035,59.424054,125.57044)" /><g
     id="g4558"
     transform="matrix(4.9289035,0,0,4.9289035,59.424054,125.57044)" /><g
     id="g4560"
     transform="matrix(4.9289035,0,0,4.9289035,59.424054,125.57044)" /><g
     id="g4562"
     transform="matrix(4.9289035,0,0,4.9289035,59.424054,125.57044)" /><g
     id="g4564"
     transform="matrix(4.9289035,0,0,4.9289035,59.424054,125.57044)" /><g
     id="g4566"
     transform="matrix(4.9289035,0,0,4.9289035,59.424054,125.57044)" /></svg>