<?xml version="1.0" encoding="UTF-8" standalone="no"?>
<!-- Generator: Adobe Illustrator 19.0.0, SVG Export Plug-In . SVG Version: 6.00 Build 0)  -->

<svg
   xmlns:dc="http://purl.org/dc/elements/1.1/"
   xmlns:cc="http://creativecommons.org/ns#"
   xmlns:rdf="http://www.w3.org/1999/02/22-rdf-syntax-ns#"
   xmlns:svg="http://www.w3.org/2000/svg"
   xmlns="http://www.w3.org/2000/svg"
   xmlns:sodipodi="http://sodipodi.sourceforge.net/DTD/sodipodi-0.dtd"
   xmlns:inkscape="http://www.inkscape.org/namespaces/inkscape"
   version="1.1"
   id="Layer_1"
   x="0px"
   y="0px"
   viewBox="0 0 352.289 352.289"
   style="enable-background:new 0 0 352.289 352.289;"
   xml:space="preserve"
   sodipodi:docname="teclado.svg"
   inkscape:version="0.92.1 r15371"><metadata
     id="metadata59"><rdf:RDF><cc:Work
         rdf:about=""><dc:format>image/svg+xml</dc:format><dc:type
           rdf:resource="http://purl.org/dc/dcmitype/StillImage" /><dc:title></dc:title></cc:Work></rdf:RDF></metadata><defs
     id="defs57" /><sodipodi:namedview
     pagecolor="#ffffff"
     bordercolor="#666666"
     borderopacity="1"
     objecttolerance="10"
     gridtolerance="10"
     guidetolerance="10"
     inkscape:pageopacity="0"
     inkscape:pageshadow="2"
     inkscape:window-width="1366"
     inkscape:window-height="707"
     id="namedview55"
     showgrid="false"
     inkscape:zoom="0.77866588"
     inkscape:cx="611.49058"
     inkscape:cy="215.61096"
     inkscape:window-x="0"
     inkscape:window-y="0"
     inkscape:window-maximized="1"
     inkscape:current-layer="Layer_1" /><g
     id="g24" /><g
     id="g26" /><g
     id="g28" /><g
     id="g30" /><g
     id="g32" /><g
     id="g34" /><g
     id="g36" /><g
     id="g38" /><g
     id="g40" /><g
     id="g42" /><g
     id="g44" /><g
     id="g46" /><g
     id="g48" /><g
     id="g50" /><g
     id="g52" /><rect
     style="opacity:1;fill:#3f6472;fill-opacity:1;stroke:#19aeff;stroke-width:0.81820601;stroke-opacity:1"
     id="rect4547"
     width="347.10855"
     height="266.06464"
     x="2.8771348"
     y="12.947405"
     ry="52.262695" /><rect
     style="opacity:1;fill:#19aeff;fill-opacity:1;stroke:none;stroke-width:0.80124712;stroke-opacity:1"
     id="rect4549"
     width="24.311104"
     height="30.071194"
     x="50.824028"
     y="52.566826" /><rect
     style="opacity:1;fill:#ffffff;fill-opacity:1;stroke:none;stroke-width:0.80124712;stroke-opacity:1"
     id="rect4549-3"
     width="24.311104"
     height="30.071194"
     x="96.069702"
     y="52.11121" /><rect
     style="opacity:1;fill:#ffffff;fill-opacity:1;stroke:none;stroke-width:0.80124712;stroke-opacity:1"
     id="rect4549-3-6"
     width="24.311104"
     height="30.071194"
     x="141.22462"
     y="52.572777" /><rect
     style="opacity:1;fill:#ffffff;fill-opacity:1;stroke:none;stroke-width:0.80124712;stroke-opacity:1"
     id="rect4549-3-6-7"
     width="24.311104"
     height="30.071194"
     x="185.63358"
     y="52.572777" /><rect
     style="opacity:1;fill:#ffffff;fill-opacity:1;stroke:none;stroke-width:0.80124712;stroke-opacity:1"
     id="rect4549-3-6-7-5"
     width="24.311104"
     height="30.071194"
     x="229.80368"
     y="52.250603" /><rect
     style="opacity:1;fill:#ffffff;fill-opacity:1;stroke:none;stroke-width:0.80124712;stroke-opacity:1"
     id="rect4549-3-6-7-5-3"
     width="24.311104"
     height="30.071194"
     x="274.69019"
     y="51.928429" /><rect
     style="opacity:1;fill:#ffffff;fill-opacity:1;stroke:none;stroke-width:0.80124712;stroke-opacity:1"
     id="rect4549-3-5"
     width="24.311104"
     height="30.071194"
     x="29.471176"
     y="111.06924" /><rect
     style="opacity:1;fill:#ffffff;fill-opacity:1;stroke:none;stroke-width:0.80124712;stroke-opacity:1"
     id="rect4549-3-6-6"
     width="24.311104"
     height="30.071194"
     x="74.626129"
     y="111.5308" /><rect
     style="opacity:1;fill:#ffffff;fill-opacity:1;stroke:none;stroke-width:0.80124712;stroke-opacity:1"
     id="rect4549-3-6-7-2"
     width="24.311104"
     height="30.071194"
     x="119.03507"
     y="111.5308" /><rect
     style="opacity:1;fill:#ffffff;fill-opacity:1;stroke:none;stroke-width:0.80124712;stroke-opacity:1"
     id="rect4549-3-6-7-5-9"
     width="24.311104"
     height="30.071194"
     x="163.20515"
     y="111.20862" /><rect
     style="opacity:1;fill:#ffffff;fill-opacity:1;stroke:none;stroke-width:0.80124712;stroke-opacity:1"
     id="rect4549-3-6-7-5-3-1"
     width="24.311104"
     height="30.071194"
     x="208.09163"
     y="110.88644" /><rect
     style="opacity:1;fill:#ffffff;fill-opacity:1;stroke:none;stroke-width:0.80124712;stroke-opacity:1"
     id="rect4549-3-6-7-5-2"
     width="24.311104"
     height="30.071194"
     x="251.29189"
     y="109.75882" /><rect
     style="opacity:1;fill:#ffffff;fill-opacity:1;stroke:none;stroke-width:0.80124712;stroke-opacity:1"
     id="rect4549-3-6-7-5-3-7"
     width="24.311104"
     height="30.071194"
     x="296.29871"
     y="167.83975" /><rect
     style="opacity:1;fill:#ff4141;fill-opacity:1;stroke:none;stroke-width:0.80124712;stroke-opacity:1"
     id="rect4549-3-6-7-5-3-7-0"
     width="24.311104"
     height="30.071194"
     x="295.62338"
     y="110.4311" /><rect
     style="opacity:1;fill:#ffffff;fill-opacity:1;stroke:none;stroke-width:0.80124712;stroke-opacity:1"
     id="rect4549-3-6-7-5-3-7-9"
     width="24.311104"
     height="30.071194"
     x="28.292278"
     y="169.20009" /><rect
     style="opacity:1;fill:#ffffff;fill-opacity:1;stroke:none;stroke-width:1.71536767;stroke-opacity:1"
     id="rect4549-3-6-7-5-3-7-3"
     width="111.4259"
     height="30.071194"
     x="118.54267"
     y="168.55576" /><g
     id="g4773"
     transform="matrix(0.68976196,0,0,0.71019122,-207.14381,27.25048)"><path
       sodipodi:nodetypes="ccccccc"
       inkscape:connector-curvature="0"
       id="path4713"
       d="m 332.14126,504.04109 104.26836,-0.48953 -0.24476,-63.39321 c -1.3776,-2.89308 -3.36754,-3.33679 -5.38475,-3.67142 l -94.72267,-0.24476 c -1.68312,0.64159 -2.96659,2.21572 -3.67142,5.13999 z"
       style="fill:#3f6472;fill-opacity:1;stroke:none;stroke-width:1px;stroke-linecap:butt;stroke-linejoin:miter;stroke-opacity:1" /><ellipse
       ry="9.8651304"
       rx="9.5189857"
       cy="458.72858"
       cx="411.39325"
       id="path4715"
       style="opacity:1;fill:#ffffff;fill-opacity:1;stroke:none;stroke-opacity:1" /><path
       sodipodi:nodetypes="ccccccccccccccccc"
       inkscape:connector-curvature="0"
       id="path4717"
       d="m 346.58218,436.97646 78.0789,-0.61191 -0.24477,-30.4728 c 0.62941,-4.62778 3.95161,-7.16118 7.46523,-9.54569 9.40588,-5.60024 20.5822,-5.88916 27.04614,-20.3152 l 24.47614,-86.15602 c 2.3832,-7.80999 -13.34903,-24.19982 -27.41328,-9.79046 l -15.41997,31.32946 -0.97905,-101.57599 c -3.25658,-11.11032 -24.13187,-19.11139 -32.55327,0.48952 l 0.24476,58.49798 -72.20462,-0.24476 c -12.23807,2.77396 -19.58091,10.44316 -22.02853,23.00758 l 1.71333,80.28175 c 0.45812,11.06524 8.59385,18.44522 20.55996,23.98662 8.4558,8.12041 9.21985,12.87569 10.52475,17.86758 z"
       style="fill:#ffbc6c;fill-opacity:1;stroke:none;stroke-width:1px;stroke-linecap:butt;stroke-linejoin:miter;stroke-opacity:1" /><rect
       y="268.52194"
       x="366.39441"
       height="46.037277"
       width="11.595855"
       id="rect4721"
       style="opacity:1;fill:#e08327;fill-opacity:1;stroke:none;stroke-opacity:1" /><rect
       y="268.69498"
       x="337.05862"
       height="46.037277"
       width="11.595855"
       id="rect4721-6"
       style="opacity:1;fill:#e08327;fill-opacity:1;stroke:none;stroke-opacity:1" /><rect
       y="268.82535"
       x="395.68716"
       height="46.037277"
       width="11.595855"
       id="rect4721-0"
       style="opacity:1;fill:#e08327;fill-opacity:1;stroke:none;stroke-opacity:1" /></g><g
     transform="matrix(-0.68976196,0,0,0.71019122,555.27692,25.859867)"
     id="g4773-6"><path
       sodipodi:nodetypes="ccccccc"
       inkscape:connector-curvature="0"
       id="path4713-2"
       d="m 332.14126,504.04109 104.26836,-0.48953 -0.24476,-63.39321 c -1.3776,-2.89308 -3.36754,-3.33679 -5.38475,-3.67142 l -94.72267,-0.24476 c -1.68312,0.64159 -2.96659,2.21572 -3.67142,5.13999 z"
       style="fill:#3f6472;fill-opacity:1;stroke:none;stroke-width:1px;stroke-linecap:butt;stroke-linejoin:miter;stroke-opacity:1" /><ellipse
       ry="9.8651304"
       rx="9.5189857"
       cy="458.72858"
       cx="411.39325"
       id="path4715-6"
       style="opacity:1;fill:#ffffff;fill-opacity:1;stroke:none;stroke-opacity:1" /><path
       sodipodi:nodetypes="ccccccccccccccccc"
       inkscape:connector-curvature="0"
       id="path4717-1"
       d="m 346.58218,436.97646 78.0789,-0.61191 -0.24477,-30.4728 c 0.62941,-4.62778 3.95161,-7.16118 7.46523,-9.54569 9.40588,-5.60024 20.5822,-5.88916 27.04614,-20.3152 l 24.47614,-86.15602 c 2.3832,-7.80999 -13.34903,-24.19982 -27.41328,-9.79046 l -15.41997,31.32946 -0.97905,-101.57599 c -3.25658,-11.11032 -24.13187,-19.11139 -32.55327,0.48952 l 0.24476,58.49798 -72.20462,-0.24476 c -12.23807,2.77396 -19.58091,10.44316 -22.02853,23.00758 l 1.71333,80.28175 c 0.45812,11.06524 8.59385,18.44522 20.55996,23.98662 8.4558,8.12041 9.21985,12.87569 10.52475,17.86758 z"
       style="fill:#ffbc6c;fill-opacity:1;stroke:none;stroke-width:1px;stroke-linecap:butt;stroke-linejoin:miter;stroke-opacity:1" /><rect
       y="268.52194"
       x="366.39441"
       height="46.037277"
       width="11.595855"
       id="rect4721-8"
       style="opacity:1;fill:#e08327;fill-opacity:1;stroke:none;stroke-opacity:1" /><rect
       y="268.69498"
       x="337.05862"
       height="46.037277"
       width="11.595855"
       id="rect4721-6-7"
       style="opacity:1;fill:#e08327;fill-opacity:1;stroke:none;stroke-opacity:1" /><rect
       y="268.82535"
       x="395.68716"
       height="46.037277"
       width="11.595855"
       id="rect4721-0-9"
       style="opacity:1;fill:#e08327;fill-opacity:1;stroke:none;stroke-opacity:1" /></g></svg>